{
  "classifierPath" : "meta::pure::metamodel::type::Class",
  "content" : {
    "_type" : "class",
    "name" : "AggregationParameters",
    "package" : "cdm::model",
    "properties" : [ {
      "multiplicity" : {
        "lowerBound" : 1,
        "upperBound" : 1
      },
      "name" : "dateTime",
      "taggedValues" : [ {
        "tag" : {
          "profile" : "meta::pure::profiles::doc",
          "value" : "doc"
        },
        "value" : "To aggregate as of a particular date"
      } ],
      "type" : "cdm::model::zonedDateTime"
    }, {
      "multiplicity" : {
        "lowerBound" : 0,
        "upperBound" : 1
      },
      "name" : "totalPosition",
      "taggedValues" : [ {
        "tag" : {
          "profile" : "meta::pure::profiles::doc",
          "value" : "doc"
        },
        "value" : "Specifies whether to calculate total position to given date, or only daily position for the given date."
      } ],
      "type" : "Boolean"
    }, {
      "multiplicity" : {
        "lowerBound" : 0,
        "upperBound" : 1
      },
      "name" : "positionStatus",
      "taggedValues" : [ {
        "tag" : {
          "profile" : "meta::pure::profiles::doc",
          "value" : "doc"
        },
        "value" : "To aggregate based on position status (EXECUTED, SETTLED etc)"
      } ],
      "type" : "cdm::model::PositionStatusEnum"
    }, {
      "multiplicity" : {
        "lowerBound" : 0
      },
      "name" : "party",
      "stereotypes" : [ {
        "profile" : "cdm::model::metadata",
        "value" : "reference"
      } ],
      "taggedValues" : [ {
        "tag" : {
          "profile" : "meta::pure::profiles::doc",
          "value" : "doc"
        },
        "value" : "To aggregate based on a selection of party(ies) / legal entity(ies)."
      } ],
      "type" : "cdm::model::Party"
    }, {
      "multiplicity" : {
        "lowerBound" : 0
      },
      "name" : "product",
      "taggedValues" : [ {
        "tag" : {
          "profile" : "meta::pure::profiles::doc",
          "value" : "doc"
        },
        "value" : "To aggregate based on a selection of products."
      } ],
      "type" : "cdm::model::Product"
    }, {
      "multiplicity" : {
        "lowerBound" : 0
      },
      "name" : "productQualifier",
      "taggedValues" : [ {
        "tag" : {
          "profile" : "meta::pure::profiles::doc",
          "value" : "doc"
        },
        "value" : "To aggregate based on a selection of product type(s)."
      } ],
      "type" : "String"
    }, {
      "multiplicity" : {
        "lowerBound" : 0
      },
      "name" : "tradeReference",
      "stereotypes" : [ {
        "profile" : "cdm::model::metadata",
        "value" : "reference"
      } ],
      "type" : "cdm::model::Trade"
    } ],
    "taggedValues" : [ {
      "tag" : {
        "profile" : "meta::pure::profiles::doc",
        "value" : "doc"
      },
      "value" : "Parameters to be used to filter events that are relevant to a given portfolio in order to calculate the state of this portfolio. The attributes correspond to all the possible aggregation criteria that can be used and these criteria can be combined. All the attributes are optional."
    } ]
  }
}