{
  "classifierPath" : "meta::pure::metamodel::type::Class",
  "content" : {
    "_type" : "class",
    "name" : "BespokeCalculationTime",
    "package" : "cdm::model",
    "properties" : [ {
      "multiplicity" : {
        "lowerBound" : 1,
        "upperBound" : 1
      },
      "name" : "asCalculationAgent",
      "taggedValues" : [ {
        "tag" : {
          "profile" : "meta::pure::profiles::doc",
          "value" : "doc"
        },
        "value" : "If set to True, the Calculation Time for Initial Margin is the time as of which the Calculation Agent (IM) computes its end of day valuations of derivatives transactions"
      } ],
      "type" : "Boolean"
    }, {
      "multiplicity" : {
        "lowerBound" : 0,
        "upperBound" : 1
      },
      "name" : "bespokeCalculationTimeTerms",
      "taggedValues" : [ {
        "tag" : {
          "profile" : "meta::pure::profiles::doc",
          "value" : "doc"
        },
        "value" : "Additional Terms applicable to Calculation Time for Initial Margin"
      } ],
      "type" : "String"
    } ],
    "taggedValues" : [ {
      "tag" : {
        "profile" : "meta::pure::profiles::doc",
        "value" : "doc"
      },
      "value" : "A class to specify additional Calculation Time terms for the purposes of Initial Margin"
    } ]
  }
}