{
  "classifierPath" : "meta::pure::metamodel::type::Class",
  "content" : {
    "_type" : "class",
    "constraints" : [ {
      "functionDefinition" : {
        "_type" : "lambda",
        "body" : [ {
          "_type" : "func",
          "function" : "if",
          "parameters" : [ {
            "_type" : "func",
            "function" : "equal",
            "parameters" : [ {
              "_type" : "property",
              "parameters" : [ {
                "_type" : "var",
                "name" : "this"
              } ],
              "property" : "summaryAmountType"
            }, {
              "_type" : "property",
              "parameters" : [ {
                "_type" : "packageableElementPtr",
                "fullPath" : "cdm::model::RecordAmountTypeEnum"
              } ],
              "property" : "GrandTotal"
            } ]
          }, {
            "_type" : "lambda",
            "body" : [ {
              "_type" : "func",
              "function" : "and",
              "parameters" : [ {
                "_type" : "func",
                "function" : "isNotEmpty",
                "parameters" : [ {
                  "_type" : "property",
                  "parameters" : [ {
                    "_type" : "var",
                    "name" : "this"
                  } ],
                  "property" : "summaryTransfer"
                } ]
              }, {
                "_type" : "func",
                "function" : "isEmpty",
                "parameters" : [ {
                  "_type" : "property",
                  "parameters" : [ {
                    "_type" : "property",
                    "parameters" : [ {
                      "_type" : "var",
                      "name" : "this"
                    } ],
                    "property" : "summaryTransfer"
                  } ],
                  "property" : "payerReceiver"
                } ]
              } ]
            } ],
            "parameters" : [ ]
          }, {
            "_type" : "lambda",
            "body" : [ {
              "_type" : "boolean",
              "multiplicity" : {
                "lowerBound" : 1,
                "upperBound" : 1
              },
              "values" : [ true ]
            } ],
            "parameters" : [ ]
          } ]
        } ],
        "parameters" : [ ]
      },
      "name" : "GrandTotal"
    }, {
      "functionDefinition" : {
        "_type" : "lambda",
        "body" : [ {
          "_type" : "func",
          "function" : "if",
          "parameters" : [ {
            "_type" : "func",
            "function" : "equal",
            "parameters" : [ {
              "_type" : "property",
              "parameters" : [ {
                "_type" : "var",
                "name" : "this"
              } ],
              "property" : "summaryAmountType"
            }, {
              "_type" : "property",
              "parameters" : [ {
                "_type" : "packageableElementPtr",
                "fullPath" : "cdm::model::RecordAmountTypeEnum"
              } ],
              "property" : "ParentTotal"
            } ]
          }, {
            "_type" : "lambda",
            "body" : [ {
              "_type" : "func",
              "function" : "and",
              "parameters" : [ {
                "_type" : "func",
                "function" : "isNotEmpty",
                "parameters" : [ {
                  "_type" : "property",
                  "parameters" : [ {
                    "_type" : "property",
                    "parameters" : [ {
                      "_type" : "var",
                      "name" : "this"
                    } ],
                    "property" : "summaryTransfer"
                  } ],
                  "property" : "payerReceiver"
                } ]
              }, {
                "_type" : "func",
                "function" : "and",
                "parameters" : [ {
                  "_type" : "func",
                  "function" : "isEmpty",
                  "parameters" : [ {
                    "_type" : "property",
                    "parameters" : [ {
                      "_type" : "property",
                      "parameters" : [ {
                        "_type" : "property",
                        "parameters" : [ {
                          "_type" : "var",
                          "name" : "this"
                        } ],
                        "property" : "summaryTransfer"
                      } ],
                      "property" : "payerReceiver"
                    } ],
                    "property" : "payerAccountReference"
                  } ]
                }, {
                  "_type" : "func",
                  "function" : "isEmpty",
                  "parameters" : [ {
                    "_type" : "property",
                    "parameters" : [ {
                      "_type" : "property",
                      "parameters" : [ {
                        "_type" : "property",
                        "parameters" : [ {
                          "_type" : "var",
                          "name" : "this"
                        } ],
                        "property" : "summaryTransfer"
                      } ],
                      "property" : "payerReceiver"
                    } ],
                    "property" : "receiverAccountReference"
                  } ]
                } ]
              } ]
            } ],
            "parameters" : [ ]
          }, {
            "_type" : "lambda",
            "body" : [ {
              "_type" : "boolean",
              "multiplicity" : {
                "lowerBound" : 1,
                "upperBound" : 1
              },
              "values" : [ true ]
            } ],
            "parameters" : [ ]
          } ]
        } ],
        "parameters" : [ ]
      },
      "name" : "ParentTotal"
    }, {
      "functionDefinition" : {
        "_type" : "lambda",
        "body" : [ {
          "_type" : "func",
          "function" : "if",
          "parameters" : [ {
            "_type" : "func",
            "function" : "equal",
            "parameters" : [ {
              "_type" : "property",
              "parameters" : [ {
                "_type" : "var",
                "name" : "this"
              } ],
              "property" : "summaryAmountType"
            }, {
              "_type" : "property",
              "parameters" : [ {
                "_type" : "packageableElementPtr",
                "fullPath" : "cdm::model::RecordAmountTypeEnum"
              } ],
              "property" : "AccountTotal"
            } ]
          }, {
            "_type" : "lambda",
            "body" : [ {
              "_type" : "func",
              "function" : "and",
              "parameters" : [ {
                "_type" : "func",
                "function" : "isNotEmpty",
                "parameters" : [ {
                  "_type" : "property",
                  "parameters" : [ {
                    "_type" : "property",
                    "parameters" : [ {
                      "_type" : "var",
                      "name" : "this"
                    } ],
                    "property" : "summaryTransfer"
                  } ],
                  "property" : "payerReceiver"
                } ]
              }, {
                "_type" : "func",
                "function" : "isNotEmpty",
                "parameters" : [ {
                  "_type" : "property",
                  "parameters" : [ {
                    "_type" : "property",
                    "parameters" : [ {
                      "_type" : "property",
                      "parameters" : [ {
                        "_type" : "var",
                        "name" : "this"
                      } ],
                      "property" : "summaryTransfer"
                    } ],
                    "property" : "payerReceiver"
                  } ],
                  "property" : "receiverAccountReference"
                } ]
              } ]
            } ],
            "parameters" : [ ]
          }, {
            "_type" : "lambda",
            "body" : [ {
              "_type" : "boolean",
              "multiplicity" : {
                "lowerBound" : 1,
                "upperBound" : 1
              },
              "values" : [ true ]
            } ],
            "parameters" : [ ]
          } ]
        } ],
        "parameters" : [ ]
      },
      "name" : "AccountTotal"
    } ],
    "name" : "BillingSummary",
    "package" : "cdm::model",
    "properties" : [ {
      "multiplicity" : {
        "lowerBound" : 0,
        "upperBound" : 1
      },
      "name" : "summaryTransfer",
      "taggedValues" : [ {
        "tag" : {
          "profile" : "meta::pure::profiles::doc",
          "value" : "doc"
        },
        "value" : "The settlement terms for the billing summary"
      } ],
      "type" : "cdm::model::Transfer"
    }, {
      "multiplicity" : {
        "lowerBound" : 1,
        "upperBound" : 1
      },
      "name" : "summaryAmountType",
      "taggedValues" : [ {
        "tag" : {
          "profile" : "meta::pure::profiles::doc",
          "value" : "doc"
        },
        "value" : "The account level for the billing summary."
      } ],
      "type" : "cdm::model::RecordAmountTypeEnum"
    } ],
    "taggedValues" : [ {
      "tag" : {
        "profile" : "meta::pure::profiles::doc",
        "value" : "doc"
      },
      "value" : "Specifies individual summaries within a billing invoice."
    } ]
  }
}