{
  "classifierPath" : "meta::pure::metamodel::type::Class",
  "content" : {
    "_type" : "class",
    "name" : "CalculationAndTiming",
    "package" : "cdm::model",
    "properties" : [ {
      "multiplicity" : {
        "lowerBound" : 0,
        "upperBound" : 1
      },
      "name" : "calculationAgentTerms",
      "taggedValues" : [ {
        "tag" : {
          "profile" : "meta::pure::profiles::doc",
          "value" : "doc"
        },
        "value" : "The calculation agent terms applicable to the agreement."
      } ],
      "type" : "cdm::model::CalculationAgentTerms"
    }, {
      "multiplicity" : {
        "lowerBound" : 0,
        "upperBound" : 1
      },
      "name" : "bespokeCalculationDate",
      "taggedValues" : [ {
        "tag" : {
          "profile" : "meta::pure::profiles::doc",
          "value" : "doc"
        },
        "value" : "The specification of bespoke Calculation Date terms for the purposes of Initial or Variation Margin by the parties to the agreement."
      } ],
      "type" : "cdm::model::BespokeCalculationDate"
    }, {
      "multiplicity" : {
        "lowerBound" : 0,
        "upperBound" : 1
      },
      "name" : "bespokeCalculationTime",
      "taggedValues" : [ {
        "tag" : {
          "profile" : "meta::pure::profiles::doc",
          "value" : "doc"
        },
        "value" : "Bespoke terms to describe the time as of which such party (or the Calculation Agent (IM) (if applicale)) computes its end of day valuations of derivatives transactions."
      } ],
      "type" : "cdm::model::BespokeCalculationTime"
    }, {
      "multiplicity" : {
        "lowerBound" : 0,
        "upperBound" : 1
      },
      "name" : "calculationDateLocation",
      "taggedValues" : [ {
        "tag" : {
          "profile" : "meta::pure::profiles::doc",
          "value" : "doc"
        },
        "value" : "The specified location where the credit exposure will be calculated by the respective parties."
      } ],
      "type" : "cdm::model::CalculationDateLocation"
    }, {
      "multiplicity" : {
        "lowerBound" : 1,
        "upperBound" : 1
      },
      "name" : "notificationTime",
      "taggedValues" : [ {
        "tag" : {
          "profile" : "meta::pure::profiles::doc",
          "value" : "doc"
        },
        "value" : "The time by which a demand for the Transfer of Eligible Credit Support (IM) or Posted Credit Support (IM) needs to be made in order for the transfer to take place in accordance with the Transfer Timing provisions."
      } ],
      "type" : "cdm::model::NotificationTime"
    }, {
      "multiplicity" : {
        "lowerBound" : 0,
        "upperBound" : 1
      },
      "name" : "collateralValuationAgent",
      "taggedValues" : [ {
        "tag" : {
          "profile" : "meta::pure::profiles::doc",
          "value" : "doc"
        },
        "value" : "The bespoke Collateral Valuation Agent terms applicable to the agreement."
      } ],
      "type" : "cdm::model::CollateralValuationAgent"
    }, {
      "multiplicity" : {
        "lowerBound" : 0,
        "upperBound" : 1
      },
      "name" : "cashSettlementDay",
      "taggedValues" : [ {
        "tag" : {
          "profile" : "meta::pure::profiles::doc",
          "value" : "doc"
        },
        "value" : "Cash Settlement Day has the meaning specified in ISDA 2016 Japanese Law Credit Support Annex for Initial Margin, Paragraph 4(b)(i), unless otherwise specified as part of this attribute."
      } ],
      "type" : "String"
    }, {
      "multiplicity" : {
        "lowerBound" : 0,
        "upperBound" : 1
      },
      "name" : "securitiesSettlementDay",
      "taggedValues" : [ {
        "tag" : {
          "profile" : "meta::pure::profiles::doc",
          "value" : "doc"
        },
        "value" : "Securities Settlement Day has the meaning specified in ISDA 2016 Japanese Law Credit Support Annex for Initial Margin, Paragraph 12, unless otherwise specified as part of this attribute."
      } ],
      "type" : "String"
    } ],
    "taggedValues" : [ {
      "tag" : {
        "profile" : "meta::pure::profiles::doc",
        "value" : "doc"
      },
      "value" : "A class to specify the Calculation, Valuation and Timing terms specific to the agreement."
    } ]
  }
}