{
  "classifierPath" : "meta::pure::metamodel::type::Enumeration",
  "content" : {
    "_type" : "Enumeration",
    "name" : "CapacityUnitEnum",
    "package" : "cdm::model",
    "taggedValues" : [ {
      "tag" : {
        "profile" : "meta::pure::profiles::doc",
        "value" : "doc"
      },
      "value" : "Provides enumerated values for capacity units, generally used in the context of defining quantities for commodities."
    } ],
    "values" : [ {
      "taggedValues" : [ {
        "tag" : {
          "profile" : "meta::pure::profiles::doc",
          "value" : "doc"
        },
        "value" : "Denotes a Barrel as a standard unit."
      } ],
      "value" : "BBL"
    }, {
      "taggedValues" : [ {
        "tag" : {
          "profile" : "meta::pure::profiles::doc",
          "value" : "doc"
        },
        "value" : "Denotes a Bushel as a standard unit of weight (48 lb or 21.7725 kg)."
      } ],
      "value" : "BSH"
    }, {
      "taggedValues" : [ {
        "tag" : {
          "profile" : "meta::pure::profiles::doc",
          "value" : "doc"
        },
        "value" : "Denotes British Thermal Units as a standard unit."
      } ],
      "value" : "BTU"
    }, {
      "taggedValues" : [ {
        "tag" : {
          "profile" : "meta::pure::profiles::doc",
          "value" : "doc"
        },
        "value" : "Denotes Short hundredweight (100 lb) as a standard unit."
      } ],
      "value" : "CWT"
    }, {
      "taggedValues" : [ {
        "tag" : {
          "profile" : "meta::pure::profiles::doc",
          "value" : "doc"
        },
        "value" : "Denotes 10 grams as a standard unit used in precious metals contracts (e.g MCX)."
      } ],
      "value" : "DAG"
    }, {
      "taggedValues" : [ {
        "tag" : {
          "profile" : "meta::pure::profiles::doc",
          "value" : "doc"
        },
        "value" : "Denotes a single day as a standard unit used in time charter trades."
      } ],
      "value" : "DAY"
    }, {
      "taggedValues" : [ {
        "tag" : {
          "profile" : "meta::pure::profiles::doc",
          "value" : "doc"
        },
        "value" : "Denotes Dry Metric Ton (Tonne) Units - Consists of a metric ton of mass excluding moisture."
      } ],
      "value" : "DMTU"
    }, {
      "taggedValues" : [ {
        "tag" : {
          "profile" : "meta::pure::profiles::doc",
          "value" : "doc"
        },
        "value" : "Denotes a Dekatherm as a standard unit."
      } ],
      "value" : "DTH"
    }, {
      "taggedValues" : [ {
        "tag" : {
          "profile" : "meta::pure::profiles::doc",
          "value" : "doc"
        },
        "value" : "Denotes a 40 ft. Equivalent Unit container as a standard unit."
      } ],
      "value" : "FEU"
    }, {
      "taggedValues" : [ {
        "tag" : {
          "profile" : "meta::pure::profiles::doc",
          "value" : "doc"
        },
        "value" : "Denotes a Gallon unit as a standard unit."
      } ],
      "value" : "GAL"
    }, {
      "taggedValues" : [ {
        "tag" : {
          "profile" : "meta::pure::profiles::doc",
          "value" : "doc"
        },
        "value" : "Denotes a Gigajoule as a standard unit."
      } ],
      "value" : "GJ"
    }, {
      "taggedValues" : [ {
        "tag" : {
          "profile" : "meta::pure::profiles::doc",
          "value" : "doc"
        },
        "value" : "Denotes a Gigawatt as a standard unit."
      } ],
      "value" : "GW"
    }, {
      "taggedValues" : [ {
        "tag" : {
          "profile" : "meta::pure::profiles::doc",
          "value" : "doc"
        },
        "value" : "Denotes a Gigawatt-hour as a standard unit."
      } ],
      "value" : "GWH"
    }, {
      "taggedValues" : [ {
        "tag" : {
          "profile" : "meta::pure::profiles::doc",
          "value" : "doc"
        },
        "value" : "Denotes a Hectolitre as a standard unit."
      } ],
      "value" : "HL"
    }, {
      "taggedValues" : [ {
        "tag" : {
          "profile" : "meta::pure::profiles::doc",
          "value" : "doc"
        },
        "value" : "Denotes an Ingot as a standard unit."
      } ],
      "value" : "INGOT"
    }, {
      "taggedValues" : [ {
        "tag" : {
          "profile" : "meta::pure::profiles::doc",
          "value" : "doc"
        },
        "value" : "Denotes a Kilogram as a standard unit."
      } ],
      "value" : "KG"
    }, {
      "taggedValues" : [ {
        "tag" : {
          "profile" : "meta::pure::profiles::doc",
          "value" : "doc"
        },
        "value" : "Denotes a Kilolitre as a standard unit."
      } ],
      "value" : "KL"
    }, {
      "taggedValues" : [ {
        "tag" : {
          "profile" : "meta::pure::profiles::doc",
          "value" : "doc"
        },
        "value" : "Denotes a Kilowatt as a standard unit."
      } ],
      "value" : "KW"
    }, {
      "taggedValues" : [ {
        "tag" : {
          "profile" : "meta::pure::profiles::doc",
          "value" : "doc"
        },
        "value" : "Denotes a Kilowatt-hour as a standard unit."
      } ],
      "value" : "KWH"
    }, {
      "taggedValues" : [ {
        "tag" : {
          "profile" : "meta::pure::profiles::doc",
          "value" : "doc"
        },
        "value" : "Denotes a Litre as a standard unit."
      } ],
      "value" : "L"
    }, {
      "taggedValues" : [ {
        "tag" : {
          "profile" : "meta::pure::profiles::doc",
          "value" : "doc"
        },
        "value" : "Denotes a Pound as a standard unit."
      } ],
      "value" : "LB"
    }, {
      "taggedValues" : [ {
        "tag" : {
          "profile" : "meta::pure::profiles::doc",
          "value" : "doc"
        },
        "value" : "Denotes a Thousand Barrels as a standard unit."
      } ],
      "value" : "MB"
    }, {
      "taggedValues" : [ {
        "tag" : {
          "profile" : "meta::pure::profiles::doc",
          "value" : "doc"
        },
        "value" : "Denotes a Thousand board feet, which are used in contracts on forestry underlyers as a standard unit."
      } ],
      "value" : "MBF"
    }, {
      "taggedValues" : [ {
        "tag" : {
          "profile" : "meta::pure::profiles::doc",
          "value" : "doc"
        },
        "value" : "Denotes a Megajoule as a standard unit."
      } ],
      "value" : "MJ"
    }, {
      "taggedValues" : [ {
        "tag" : {
          "profile" : "meta::pure::profiles::doc",
          "value" : "doc"
        },
        "value" : "Denotes a Million board feet, which are used in contracts on forestry underlyers as a standard unit."
      } ],
      "value" : "MMBF"
    }, {
      "taggedValues" : [ {
        "tag" : {
          "profile" : "meta::pure::profiles::doc",
          "value" : "doc"
        },
        "value" : "Denotes a Million British Thermal Units as a standard unit."
      } ],
      "value" : "MMBTU"
    }, {
      "taggedValues" : [ {
        "tag" : {
          "profile" : "meta::pure::profiles::doc",
          "value" : "doc"
        },
        "value" : "Denotes a Thousand square feet as a standard unit."
      } ],
      "value" : "MSF"
    }, {
      "taggedValues" : [ {
        "tag" : {
          "profile" : "meta::pure::profiles::doc",
          "value" : "doc"
        },
        "value" : "Denotes a Metric Ton as a standard unit."
      } ],
      "value" : "MT"
    }, {
      "taggedValues" : [ {
        "tag" : {
          "profile" : "meta::pure::profiles::doc",
          "value" : "doc"
        },
        "value" : "Denotes a Megawatt as a standard unit."
      } ],
      "value" : "MW"
    }, {
      "taggedValues" : [ {
        "tag" : {
          "profile" : "meta::pure::profiles::doc",
          "value" : "doc"
        },
        "value" : "Denotes a Megawatt-hour as a standard unit."
      } ],
      "value" : "MWH"
    }, {
      "taggedValues" : [ {
        "tag" : {
          "profile" : "meta::pure::profiles::doc",
          "value" : "doc"
        },
        "value" : "Denotes a Troy Ounce as a standard unit."
      } ],
      "value" : "OZT"
    }, {
      "taggedValues" : [ {
        "tag" : {
          "profile" : "meta::pure::profiles::doc",
          "value" : "doc"
        },
        "value" : "Denotes a Short Ton as a standard unit."
      } ],
      "value" : "ST"
    }, {
      "taggedValues" : [ {
        "tag" : {
          "profile" : "meta::pure::profiles::doc",
          "value" : "doc"
        },
        "value" : "Denotes a Long Ton as a standard unit."
      } ],
      "value" : "T"
    }, {
      "taggedValues" : [ {
        "tag" : {
          "profile" : "meta::pure::profiles::doc",
          "value" : "doc"
        },
        "value" : "Denotes a 20 ft. Equivalent Unit container as a standard unit."
      } ],
      "value" : "TEU"
    }, {
      "taggedValues" : [ {
        "tag" : {
          "profile" : "meta::pure::profiles::doc",
          "value" : "doc"
        },
        "value" : "Denotes a Thermal Unit as a standard unit."
      } ],
      "value" : "THERM"
    } ]
  }
}