{
  "classifierPath" : "meta::pure::metamodel::type::Enumeration",
  "content" : {
    "_type" : "Enumeration",
    "name" : "CategoryEnum",
    "package" : "cdm::model",
    "taggedValues" : [ {
      "tag" : {
        "profile" : "meta::pure::profiles::doc",
        "value" : "doc"
      },
      "value" : "The enumerated values to specify the type of organisation involved in the transaction."
    } ],
    "values" : [ {
      "taggedValues" : [ {
        "tag" : {
          "profile" : "meta::pure::profiles::doc",
          "value" : "doc"
        },
        "value" : "The trade or trade report represents the information from the perspective of the sender of the report, typically a clearing member firm or dealer (acting as an agent)."
      } ],
      "value" : "Agent"
    }, {
      "taggedValues" : [ {
        "tag" : {
          "profile" : "meta::pure::profiles::doc",
          "value" : "doc"
        },
        "value" : "The trade or trade report represents the information from the perspective of the counterparty of the sender of the report, which is typically a clearing member firm or dealer."
      } ],
      "value" : "Counterparty"
    }, {
      "taggedValues" : [ {
        "tag" : {
          "profile" : "meta::pure::profiles::doc",
          "value" : "doc"
        },
        "value" : "The trade or trade report represents the information from the perspective of a client opposite the sender of the report, which is typically a clearing member firm or dealer."
      } ],
      "value" : "Customer"
    }, {
      "taggedValues" : [ {
        "tag" : {
          "profile" : "meta::pure::profiles::doc",
          "value" : "doc"
        },
        "value" : "The trade or trade report represents the information from the perspective of the sender of the report, typically a clearing member firm or dealer (acting as a principal)."
      } ],
      "value" : "Principal"
    } ]
  }
}