{
  "classifierPath" : "meta::pure::metamodel::type::Class",
  "content" : {
    "_type" : "class",
    "name" : "CollateralValuationTreatment",
    "package" : "cdm::model",
    "properties" : [ {
      "multiplicity" : {
        "lowerBound" : 0,
        "upperBound" : 1
      },
      "name" : "haircutPercentage",
      "taggedValues" : [ {
        "tag" : {
          "profile" : "meta::pure::profiles::doc",
          "value" : "doc"
        },
        "value" : "Haircut percentage to be applied to the value of asset and used as a discount factor to the value of the collateral asset,expressed as a percentage in decimal terms. As an example a 0.5% haircut would be represented as a decimal number 0.005"
      } ],
      "type" : "Float"
    }, {
      "multiplicity" : {
        "lowerBound" : 0,
        "upperBound" : 1
      },
      "name" : "marginPercentage",
      "taggedValues" : [ {
        "tag" : {
          "profile" : "meta::pure::profiles::doc",
          "value" : "doc"
        },
        "value" : "Percentage value of transaction needing to be posted as collateral expressed as a valuation. As an example a 104% requirement would be represented as a decimal number 1.04"
      } ],
      "type" : "Float"
    }, {
      "multiplicity" : {
        "lowerBound" : 0,
        "upperBound" : 1
      },
      "name" : "fxHaircutPercentage",
      "taggedValues" : [ {
        "tag" : {
          "profile" : "meta::pure::profiles::doc",
          "value" : "doc"
        },
        "value" : "FX haircut applied to a specific asset which is agreed between the parties (for example, if pledgor eligible collateral is not denominated in the termination currency or under other specified cases in collateral support documents both for initial margin and variation margin).The percentage value is expressed as the discount haircut to the value of the collateral- as an example an 8% FX haircut would be expressed as 0.08."
      } ],
      "type" : "Float"
    }, {
      "multiplicity" : {
        "lowerBound" : 0,
        "upperBound" : 1
      },
      "name" : "additionalHaircutPercentage",
      "taggedValues" : [ {
        "tag" : {
          "profile" : "meta::pure::profiles::doc",
          "value" : "doc"
        },
        "value" : "Percentage value of any additional haircut to be applied to a collateral asset,the percentage value is expressed as the discount haircut to the value of the collateral- as an example a 5% haircut would be expressed as 0.05."
      } ],
      "type" : "Float"
    } ],
    "taggedValues" : [ {
      "tag" : {
        "profile" : "meta::pure::profiles::doc",
        "value" : "doc"
      },
      "value" : "Specification of the valuation treatment for the specified collateral."
    } ]
  }
}