{
  "classifierPath" : "meta::pure::metamodel::type::Class",
  "content" : {
    "_type" : "class",
    "name" : "ContactInformation",
    "package" : "cdm::model",
    "properties" : [ {
      "multiplicity" : {
        "lowerBound" : 0
      },
      "name" : "telephone",
      "taggedValues" : [ {
        "tag" : {
          "profile" : "meta::pure::profiles::doc",
          "value" : "doc"
        },
        "value" : "The telephone number."
      } ],
      "type" : "cdm::model::TelephoneNumber"
    }, {
      "multiplicity" : {
        "lowerBound" : 0
      },
      "name" : "address",
      "taggedValues" : [ {
        "tag" : {
          "profile" : "meta::pure::profiles::doc",
          "value" : "doc"
        },
        "value" : "The street/postal address."
      } ],
      "type" : "cdm::model::Address"
    }, {
      "multiplicity" : {
        "lowerBound" : 0
      },
      "name" : "email",
      "taggedValues" : [ {
        "tag" : {
          "profile" : "meta::pure::profiles::doc",
          "value" : "doc"
        },
        "value" : "The email address."
      } ],
      "type" : "String"
    }, {
      "multiplicity" : {
        "lowerBound" : 0
      },
      "name" : "webPage",
      "taggedValues" : [ {
        "tag" : {
          "profile" : "meta::pure::profiles::doc",
          "value" : "doc"
        },
        "value" : "The web page. This attribute is not specified as part of the FpML ContactInformation complex type."
      } ],
      "type" : "String"
    } ],
    "taggedValues" : [ {
      "tag" : {
        "profile" : "meta::pure::profiles::doc",
        "value" : "doc"
      },
      "value" : "A class to specify contact information associated with a party: telephone, postal/street address, email and web page."
    } ]
  }
}