{
  "classifierPath" : "meta::pure::metamodel::type::Class",
  "content" : {
    "_type" : "class",
    "name" : "CreditSupportObligationsVariationMargin",
    "package" : "cdm::model",
    "properties" : [ {
      "multiplicity" : {
        "lowerBound" : 0,
        "upperBound" : 1
      },
      "name" : "ineligibleCreditSupport",
      "taggedValues" : [ {
        "tag" : {
          "profile" : "meta::pure::profiles::doc",
          "value" : "doc"
        },
        "value" : "The parties to which the provisions of Paragraph 11(g) of the ISDA 2016 Credit Support Annex for Variation Margin will apply to. ISDA 2016 Credit Support Annex for Variation Margin, paragraph 13, (c)(iii): Legally Ineligible Credit Support (VM)."
      } ],
      "type" : "cdm::model::IneligibleCreditSupport"
    }, {
      "multiplicity" : {
        "lowerBound" : 0
      },
      "name" : "majorCurrency",
      "stereotypes" : [ {
        "profile" : "cdm::model::metadata",
        "value" : "scheme"
      } ],
      "taggedValues" : [ {
        "tag" : {
          "profile" : "meta::pure::profiles::doc",
          "value" : "doc"
        },
        "value" : "The additional currencies that are specified as Major Currency for the purpose of applying the FX Haircut Percentage. ISDA 2016 Credit Support Annex for Variation Margin, paragraph 13, (c)(v)(B): FX Haircut Percentage."
      } ],
      "type" : "String"
    }, {
      "multiplicity" : {
        "lowerBound" : 0,
        "upperBound" : 1
      },
      "name" : "fxHaircut",
      "taggedValues" : [ {
        "tag" : {
          "profile" : "meta::pure::profiles::doc",
          "value" : "doc"
        },
        "value" : "The alternative definition for FX haircut percentage that applies to each party (as the pledgor/chargor/obligor) and item of Eligible Collateral unless this item is denominated in a Major Currency or in the Base Currency. ISDA 2016 Credit Support Annex for Variation Margin, paragraph 13, (c)(v)(B): FX Haircut Percentage."
      } ],
      "type" : "String"
    } ],
    "taggedValues" : [ {
      "tag" : {
        "profile" : "meta::pure::profiles::doc",
        "value" : "doc"
      },
      "value" : "A class to specify the Credit Support Obligations applicable to the Variation Margin Credit Support Annex and which are common among the English, Japanese and New York governing laws. ISDA 2016 Credit Support Annex for Variation Margin, paragraph 13, (c): Credit Support Obligations."
    } ]
  }
}