{
  "classifierPath" : "meta::pure::metamodel::type::Class",
  "content" : {
    "_type" : "class",
    "name" : "Document",
    "package" : "cdm::model",
    "properties" : [ {
      "multiplicity" : {
        "lowerBound" : 1,
        "upperBound" : 1
      },
      "name" : "finInstrmRptgTxRpt",
      "type" : "cdm::model::FinInstrmRptgTxRpt"
    } ]
  }
}