{
  "classifierPath" : "meta::pure::metamodel::type::Enumeration",
  "content" : {
    "_type" : "Enumeration",
    "name" : "DurationTypeEnum",
    "package" : "cdm::model",
    "taggedValues" : [ {
      "tag" : {
        "profile" : "meta::pure::profiles::doc",
        "value" : "doc"
      },
      "value" : "Specifies the duration type of the Security Lending transaction. e.g. Open or Term."
    } ],
    "values" : [ {
      "taggedValues" : [ {
        "tag" : {
          "profile" : "meta::pure::profiles::doc",
          "value" : "doc"
        },
        "value" : "Specifies a trade with a termination date."
      } ],
      "value" : "Term"
    }, {
      "taggedValues" : [ {
        "tag" : {
          "profile" : "meta::pure::profiles::doc",
          "value" : "doc"
        },
        "value" : "Specifies a trade with no termination date."
      } ],
      "value" : "Open"
    }, {
      "taggedValues" : [ {
        "tag" : {
          "profile" : "meta::pure::profiles::doc",
          "value" : "doc"
        },
        "value" : "Specifies a trade where the term date is extended by a pre-determined period until a notice is serviced. Once the notice is served, the trade will not be reset again and goes to term."
      } ],
      "value" : "Evergreen"
    } ]
  }
}