{
  "classifierPath" : "meta::pure::metamodel::type::Class",
  "content" : {
    "_type" : "class",
    "name" : "EligibleCurrencyInterestRate",
    "package" : "cdm::model",
    "properties" : [ {
      "multiplicity" : {
        "lowerBound" : 1,
        "upperBound" : 1
      },
      "name" : "currency",
      "stereotypes" : [ {
        "profile" : "cdm::model::metadata",
        "value" : "scheme"
      } ],
      "taggedValues" : [ {
        "tag" : {
          "profile" : "meta::pure::profiles::doc",
          "value" : "doc"
        },
        "value" : "The eligible currency."
      } ],
      "type" : "String"
    }, {
      "multiplicity" : {
        "lowerBound" : 1,
        "upperBound" : 1
      },
      "name" : "interestRate",
      "taggedValues" : [ {
        "tag" : {
          "profile" : "meta::pure::profiles::doc",
          "value" : "doc"
        },
        "value" : "The interest rate associated with the eligible currency."
      } ],
      "type" : "Float"
    }, {
      "multiplicity" : {
        "lowerBound" : 1,
        "upperBound" : 1
      },
      "name" : "actual365Currency",
      "stereotypes" : [ {
        "profile" : "cdm::model::metadata",
        "value" : "scheme"
      } ],
      "type" : "cdm::model::DayCountFractionEnum"
    } ],
    "taggedValues" : [ {
      "tag" : {
        "profile" : "meta::pure::profiles::doc",
        "value" : "doc"
      },
      "value" : "A class to specify the interest rate associated with initial margin collateral. ISDA 2016 Japanese Law Credit Support Annex for Initial Margin, paragraph 13, General Principles, (n): Distributions and Interest Payment (IM)."
    } ]
  }
}