{
  "classifierPath" : "meta::pure::metamodel::type::Class",
  "content" : {
    "_type" : "class",
    "name" : "EligibleCollateralSchedule",
    "package" : "cdm::model",
    "properties" : [ {
      "multiplicity" : {
        "lowerBound" : 0
      },
      "name" : "scheduleIdentifier",
      "taggedValues" : [ {
        "tag" : {
          "profile" : "meta::pure::profiles::doc",
          "value" : "doc"
        },
        "value" : "Represents the identifier(s) that uniquely identify an eligible collateral schedule for an identity issuer."
      } ],
      "type" : "cdm::model::Identifier"
    }, {
      "multiplicity" : {
        "lowerBound" : 1
      },
      "name" : "criteria",
      "taggedValues" : [ {
        "tag" : {
          "profile" : "meta::pure::profiles::doc",
          "value" : "doc"
        },
        "value" : "Criteria used to specify eligible collateral."
      } ],
      "type" : "cdm::model::EligibleCollateralCriteria"
    } ],
    "stereotypes" : [ {
      "profile" : "cdm::model::metadata",
      "value" : "key"
    } ],
    "taggedValues" : [ {
      "tag" : {
        "profile" : "meta::pure::profiles::doc",
        "value" : "doc"
      },
      "value" : "Set of criteria used to specify an eligible collateral schedule."
    } ]
  }
}