{
  "classifierPath" : "meta::pure::metamodel::type::Enumeration",
  "content" : {
    "_type" : "Enumeration",
    "name" : "EntityTypeEnum",
    "package" : "cdm::model",
    "taggedValues" : [ {
      "tag" : {
        "profile" : "meta::pure::profiles::doc",
        "value" : "doc"
      },
      "value" : "The enumerated values to specify the reference entity types corresponding to a list of types defined in the ISDA First to Default documentation."
    } ],
    "values" : [ {
      "taggedValues" : [ {
        "tag" : {
          "profile" : "meta::pure::profiles::doc",
          "value" : "doc"
        },
        "value" : "Entity Type of Asian."
      } ],
      "value" : "Asian"
    }, {
      "taggedValues" : [ {
        "tag" : {
          "profile" : "meta::pure::profiles::doc",
          "value" : "doc"
        },
        "value" : "Entity Type of Australian and New Zealand."
      } ],
      "value" : "AustralianAndNewZealand"
    }, {
      "taggedValues" : [ {
        "tag" : {
          "profile" : "meta::pure::profiles::doc",
          "value" : "doc"
        },
        "value" : "Entity Type of European Emerging Markets."
      } ],
      "value" : "EuropeanEmergingMarkets"
    }, {
      "taggedValues" : [ {
        "tag" : {
          "profile" : "meta::pure::profiles::doc",
          "value" : "doc"
        },
        "value" : "Entity Type of Japanese."
      } ],
      "value" : "Japanese"
    }, {
      "taggedValues" : [ {
        "tag" : {
          "profile" : "meta::pure::profiles::doc",
          "value" : "doc"
        },
        "value" : "Entity Type of North American High Yield."
      } ],
      "value" : "NorthAmericanHighYield"
    }, {
      "taggedValues" : [ {
        "tag" : {
          "profile" : "meta::pure::profiles::doc",
          "value" : "doc"
        },
        "value" : "Entity Type of North American Insurance."
      } ],
      "value" : "NorthAmericanInsurance"
    }, {
      "taggedValues" : [ {
        "tag" : {
          "profile" : "meta::pure::profiles::doc",
          "value" : "doc"
        },
        "value" : "Entity Type of North American Investment Grade."
      } ],
      "value" : "NorthAmericanInvestmentGrade"
    }, {
      "taggedValues" : [ {
        "tag" : {
          "profile" : "meta::pure::profiles::doc",
          "value" : "doc"
        },
        "value" : "Entity Type of Singaporean."
      } ],
      "value" : "Singaporean"
    }, {
      "taggedValues" : [ {
        "tag" : {
          "profile" : "meta::pure::profiles::doc",
          "value" : "doc"
        },
        "value" : "Entity Type of Western European."
      } ],
      "value" : "WesternEuropean"
    }, {
      "taggedValues" : [ {
        "tag" : {
          "profile" : "meta::pure::profiles::doc",
          "value" : "doc"
        },
        "value" : "Entity Type of Western European Insurance."
      } ],
      "value" : "WesternEuropeanInsurance"
    } ]
  }
}