{
  "classifierPath" : "meta::pure::metamodel::type::Class",
  "content" : {
    "_type" : "class",
    "name" : "HoldingAndUsingPostedCollateral",
    "package" : "cdm::model",
    "properties" : [ {
      "multiplicity" : {
        "lowerBound" : 2,
        "upperBound" : 2
      },
      "name" : "partyElection",
      "taggedValues" : [ {
        "tag" : {
          "profile" : "meta::pure::profiles::doc",
          "value" : "doc"
        },
        "value" : "The parties' elections for the holding and using of posted collateral."
      } ],
      "type" : "cdm::model::HoldingAndUsingPostedCollateralElection"
    } ],
    "taggedValues" : [ {
      "tag" : {
        "profile" : "meta::pure::profiles::doc",
        "value" : "doc"
      },
      "value" : "A class to specify the elections for the holding and using of posted collateral by the respective parties to the Credit Support Annex for Variation Margin. ISDA 2016 Credit Support Annex for Variation Margin, paragraph 13, (h): Holding and Using Posted Collateral (VM)."
    } ]
  }
}