{
  "classifierPath" : "meta::pure::metamodel::type::Class",
  "content" : {
    "_type" : "class",
    "name" : "LegalAgreement",
    "package" : "cdm::model",
    "properties" : [ {
      "multiplicity" : {
        "lowerBound" : 0,
        "upperBound" : 1
      },
      "name" : "agreementTerms",
      "taggedValues" : [ {
        "tag" : {
          "profile" : "meta::pure::profiles::doc",
          "value" : "doc"
        },
        "value" : "Specification of the content of the legal agreement."
      } ],
      "type" : "cdm::model::AgreementTerms"
    }, {
      "multiplicity" : {
        "lowerBound" : 0
      },
      "name" : "relatedAgreements",
      "taggedValues" : [ {
        "tag" : {
          "profile" : "meta::pure::profiles::doc",
          "value" : "doc"
        },
        "value" : "Specifies the agreement(s) that govern the agreement, either as a reference to such agreements when specified as part of the CDM, or through identification of some of the key terms of those agreements, such as the type of agreement, the publisher, the vintage, the agreement identifier and the agreement date."
      } ],
      "type" : "cdm::model::RelatedAgreement"
    }, {
      "multiplicity" : {
        "lowerBound" : 0,
        "upperBound" : 1
      },
      "name" : "umbrellaAgreement",
      "taggedValues" : [ {
        "tag" : {
          "profile" : "meta::pure::profiles::doc",
          "value" : "doc"
        },
        "value" : "The determination of whether Umbrella Agreement terms are applicable (True) or Not Applicable (False)."
      } ],
      "type" : "cdm::model::UmbrellaAgreement"
    } ],
    "stereotypes" : [ {
      "profile" : "cdm::model::metadata",
      "value" : "key"
    } ],
    "superTypes" : [ "cdm::model::LegalAgreementBase" ],
    "taggedValues" : [ {
      "tag" : {
        "profile" : "meta::pure::profiles::doc",
        "value" : "doc"
      },
      "value" : "The specification of a legal agreement between two parties, including the baseline information and the optional specification of agreement terms allowing ."
    } ]
  }
}