{
  "classifierPath" : "meta::pure::metamodel::type::Class",
  "content" : {
    "_type" : "class",
    "name" : "LegalAgreementType",
    "package" : "cdm::model",
    "properties" : [ {
      "multiplicity" : {
        "lowerBound" : 1,
        "upperBound" : 1
      },
      "name" : "name",
      "taggedValues" : [ {
        "tag" : {
          "profile" : "meta::pure::profiles::doc",
          "value" : "doc"
        },
        "value" : "The legal agreement name, e.g. Credit Support Annex for Variation Margin."
      } ],
      "type" : "cdm::model::LegalAgreementNameEnum"
    }, {
      "multiplicity" : {
        "lowerBound" : 1,
        "upperBound" : 1
      },
      "name" : "publisher",
      "taggedValues" : [ {
        "tag" : {
          "profile" : "meta::pure::profiles::doc",
          "value" : "doc"
        },
        "value" : "The legal agreement publisher, e.g. ISDA."
      } ],
      "type" : "cdm::model::LegalAgreementPublisherEnum"
    }, {
      "multiplicity" : {
        "lowerBound" : 0,
        "upperBound" : 1
      },
      "name" : "governingLaw",
      "taggedValues" : [ {
        "tag" : {
          "profile" : "meta::pure::profiles::doc",
          "value" : "doc"
        },
        "value" : "The law governing the legal agreement, e.g. English Law, New York Law or Japanese Law."
      } ],
      "type" : "cdm::model::GoverningLawEnum"
    }, {
      "multiplicity" : {
        "lowerBound" : 0,
        "upperBound" : 1
      },
      "name" : "vintage",
      "taggedValues" : [ {
        "tag" : {
          "profile" : "meta::pure::profiles::doc",
          "value" : "doc"
        },
        "value" : "In the case where successive definitions of the legal agreement have been developed, the vintage identification. This is typically (but not necessarily) done by referencing the year, e.g. 2013 in the case of the ISDA 2013 Standard Credit Support Annex."
      } ],
      "type" : "Integer"
    } ],
    "taggedValues" : [ {
      "tag" : {
        "profile" : "meta::pure::profiles::doc",
        "value" : "doc"
      },
      "value" : "A class to specify the type of legal agreement, which is extended by each legal agreement instance, such as the ISDA 2016 CSA for Initial Margin."
    } ]
  }
}