{
  "classifierPath" : "meta::pure::metamodel::type::Class",
  "content" : {
    "_type" : "class",
    "name" : "LimitApplicableExtended",
    "package" : "cdm::model",
    "properties" : [ {
      "multiplicity" : {
        "lowerBound" : 0,
        "upperBound" : 1
      },
      "name" : "limitLevel",
      "stereotypes" : [ {
        "profile" : "cdm::model::metadata",
        "value" : "scheme"
      } ],
      "taggedValues" : [ {
        "tag" : {
          "profile" : "meta::pure::profiles::doc",
          "value" : "doc"
        },
        "value" : "The level at which the limit is set: customer business, proprietary business or account level. This attribute is specified as a string as part of the CME clearing confirmation specification."
      } ],
      "type" : "cdm::model::LimitLevelEnum"
    }, {
      "multiplicity" : {
        "lowerBound" : 0,
        "upperBound" : 1
      },
      "name" : "limitAmount",
      "taggedValues" : [ {
        "tag" : {
          "profile" : "meta::pure::profiles::doc",
          "value" : "doc"
        },
        "value" : "The total limit available for the limit level and limit type. While the attribute is of type integer in the CME schema, it has been specified to be of type number in the CDM to take into consideration java size limits as well as for consistency purposes with the way most monetary amounts are expressed."
      } ],
      "type" : "Float"
    }, {
      "multiplicity" : {
        "lowerBound" : 0,
        "upperBound" : 1
      },
      "name" : "limitImpactDueToTrade",
      "taggedValues" : [ {
        "tag" : {
          "profile" : "meta::pure::profiles::doc",
          "value" : "doc"
        },
        "value" : "The limit utilized by this specific trade. While the attribute is of type integer in the CME schema, it has been specified to be of type number in the CDM to take into consideration java size limits as well as for consistency purposes with the way most monetary amounts are expressed."
      } ],
      "type" : "Float"
    } ],
    "superTypes" : [ "cdm::model::LimitApplicable" ],
    "taggedValues" : [ {
      "tag" : {
        "profile" : "meta::pure::profiles::doc",
        "value" : "doc"
      },
      "value" : "A class to represent the CDM attributes that are not part of the FpML standard. Once broader usage is confirmed, it is expected that those two classes can be collapsed."
    } ]
  }
}