{
  "classifierPath" : "meta::pure::metamodel::type::Class",
  "content" : {
    "_type" : "class",
    "name" : "MinimumTransferAmountAmendment",
    "package" : "cdm::model",
    "properties" : [ {
      "multiplicity" : {
        "lowerBound" : 1,
        "upperBound" : 1
      },
      "name" : "isApplicable",
      "taggedValues" : [ {
        "tag" : {
          "profile" : "meta::pure::profiles::doc",
          "value" : "doc"
        },
        "value" : "The definition of Minimum Transfer Amount in any Other Regulatory CSA will be amended when applicable."
      } ],
      "type" : "Boolean"
    }, {
      "multiplicity" : {
        "lowerBound" : 0,
        "upperBound" : 1
      },
      "name" : "effectiveDate",
      "taggedValues" : [ {
        "tag" : {
          "profile" : "meta::pure::profiles::doc",
          "value" : "doc"
        },
        "value" : "The effective date of the Amendment to Termination Currency."
      } ],
      "type" : "cdm::model::AmendmentEffectiveDate"
    }, {
      "multiplicity" : {
        "lowerBound" : 0,
        "upperBound" : 2
      },
      "name" : "partyElections",
      "taggedValues" : [ {
        "tag" : {
          "profile" : "meta::pure::profiles::doc",
          "value" : "doc"
        },
        "value" : "The party elective amounts."
      } ],
      "type" : "cdm::model::ElectiveAmountElection"
    } ],
    "taggedValues" : [ {
      "tag" : {
        "profile" : "meta::pure::profiles::doc",
        "value" : "doc"
      },
      "value" : "A class to specify whether Amendment to Minimum Transfer Amount language is applicable or not"
    } ]
  }
}