{
  "classifierPath" : "meta::pure::metamodel::type::Class",
  "content" : {
    "_type" : "class",
    "constraints" : [ {
      "functionDefinition" : {
        "_type" : "lambda",
        "body" : [ {
          "_type" : "func",
          "function" : "greaterThanEqual",
          "parameters" : [ {
            "_type" : "property",
            "parameters" : [ {
              "_type" : "var",
              "name" : "this"
            } ],
            "property" : "amount"
          }, {
            "_type" : "float",
            "multiplicity" : {
              "lowerBound" : 1,
              "upperBound" : 1
            },
            "values" : [ 0 ]
          } ]
        } ],
        "parameters" : [ ]
      },
      "name" : "NonNegativeQuantity_amount"
    } ],
    "name" : "NonNegativeQuantity",
    "package" : "cdm::model",
    "superTypes" : [ "cdm::model::Quantity" ],
    "taggedValues" : [ {
      "tag" : {
        "profile" : "meta::pure::profiles::doc",
        "value" : "doc"
      },
      "value" : "Class to specify a quantity as a non-negative number, which condition is enforced through a data rule that only applies to the extending class."
    } ]
  }
}