{
  "classifierPath" : "meta::pure::metamodel::type::Class",
  "content" : {
    "_type" : "class",
    "name" : "OtherAgreements",
    "package" : "cdm::model",
    "properties" : [ {
      "multiplicity" : {
        "lowerBound" : 0,
        "upperBound" : 1
      },
      "name" : "otherCsa",
      "taggedValues" : [ {
        "tag" : {
          "profile" : "meta::pure::profiles::doc",
          "value" : "doc"
        },
        "value" : "The bespoke definition of Other CSA as specified by the parties to the agreement."
      } ],
      "type" : "cdm::model::OtherAgreementTerms"
    }, {
      "multiplicity" : {
        "lowerBound" : 0,
        "upperBound" : 1
      },
      "name" : "japaneseLawCsa",
      "taggedValues" : [ {
        "tag" : {
          "profile" : "meta::pure::profiles::doc",
          "value" : "doc"
        },
        "value" : "The bespoke definition of whether Japanese Law CSA (VM) are specified by the parties to the agreement. ISDA 2016 Credit Support Annex for Initial Margin, paragraph 13, General Principles, (s)(ii): Japanese Law CSA (VM)."
      } ],
      "type" : "cdm::model::OtherAgreementTerms"
    } ],
    "taggedValues" : [ {
      "tag" : {
        "profile" : "meta::pure::profiles::doc",
        "value" : "doc"
      },
      "value" : "The bespoke definition of other agreement terms as specified by the parties to the agreement."
    } ]
  }
}