{
  "classifierPath" : "meta::pure::metamodel::type::Class",
  "content" : {
    "_type" : "class",
    "constraints" : [ {
      "functionDefinition" : {
        "_type" : "lambda",
        "body" : [ {
          "_type" : "func",
          "function" : "or",
          "parameters" : [ {
            "_type" : "func",
            "function" : "or",
            "parameters" : [ {
              "_type" : "func",
              "function" : "and",
              "parameters" : [ {
                "_type" : "func",
                "function" : "isEmpty",
                "parameters" : [ {
                  "_type" : "property",
                  "parameters" : [ {
                    "_type" : "var",
                    "name" : "this"
                  } ],
                  "property" : "contactInformation"
                } ]
              }, {
                "_type" : "func",
                "function" : "isEmpty",
                "parameters" : [ {
                  "_type" : "property",
                  "parameters" : [ {
                    "_type" : "var",
                    "name" : "this"
                  } ],
                  "property" : "address"
                } ]
              } ]
            }, {
              "_type" : "func",
              "function" : "and",
              "parameters" : [ {
                "_type" : "func",
                "function" : "isNotEmpty",
                "parameters" : [ {
                  "_type" : "property",
                  "parameters" : [ {
                    "_type" : "var",
                    "name" : "this"
                  } ],
                  "property" : "contactInformation"
                } ]
              }, {
                "_type" : "func",
                "function" : "isEmpty",
                "parameters" : [ {
                  "_type" : "property",
                  "parameters" : [ {
                    "_type" : "var",
                    "name" : "this"
                  } ],
                  "property" : "address"
                } ]
              } ]
            } ]
          }, {
            "_type" : "func",
            "function" : "and",
            "parameters" : [ {
              "_type" : "func",
              "function" : "isNotEmpty",
              "parameters" : [ {
                "_type" : "property",
                "parameters" : [ {
                  "_type" : "var",
                  "name" : "this"
                } ],
                "property" : "address"
              } ]
            }, {
              "_type" : "func",
              "function" : "isEmpty",
              "parameters" : [ {
                "_type" : "property",
                "parameters" : [ {
                  "_type" : "var",
                  "name" : "this"
                } ],
                "property" : "contactInformation"
              } ]
            } ]
          } ]
        } ],
        "parameters" : [ ]
      },
      "name" : "PartyContactInformationChoice"
    } ],
    "name" : "PartyContactInformation",
    "package" : "cdm::model",
    "properties" : [ {
      "multiplicity" : {
        "lowerBound" : 0,
        "upperBound" : 1
      },
      "name" : "partyReference",
      "stereotypes" : [ {
        "profile" : "cdm::model::metadata",
        "value" : "reference"
      } ],
      "taggedValues" : [ {
        "tag" : {
          "profile" : "meta::pure::profiles::doc",
          "value" : "doc"
        },
        "value" : "The reference to the party to which the contact information refers to."
      } ],
      "type" : "cdm::model::Party"
    }, {
      "multiplicity" : {
        "lowerBound" : 0,
        "upperBound" : 1
      },
      "name" : "contactInformation",
      "taggedValues" : [ {
        "tag" : {
          "profile" : "meta::pure::profiles::doc",
          "value" : "doc"
        },
        "value" : "The postal/street address, telephone number, email address and/or web page. If the contact information is specific to the associated business unit(s), it should be associated with those."
      } ],
      "type" : "cdm::model::ContactInformation"
    }, {
      "multiplicity" : {
        "lowerBound" : 0
      },
      "name" : "businessUnit",
      "taggedValues" : [ {
        "tag" : {
          "profile" : "meta::pure::profiles::doc",
          "value" : "doc"
        },
        "value" : "Optional organization unit information used to describe the organization units (e.g. trading desks) involved in a transaction or business process, incl. the contact information (when relevant)."
      } ],
      "type" : "cdm::model::BusinessUnit"
    }, {
      "multiplicity" : {
        "lowerBound" : 0
      },
      "name" : "person",
      "taggedValues" : [ {
        "tag" : {
          "profile" : "meta::pure::profiles::doc",
          "value" : "doc"
        },
        "value" : "Optional information about people involved in a transaction or business process. (These are employees of the party.)"
      } ],
      "type" : "cdm::model::NaturalPerson"
    }, {
      "multiplicity" : {
        "lowerBound" : 0,
        "upperBound" : 1
      },
      "name" : "address",
      "taggedValues" : [ {
        "tag" : {
          "profile" : "meta::pure::profiles::doc",
          "value" : "doc"
        },
        "value" : "The address specified as a string to support non-normalized contact information, such as in the case of ISDA Create."
      } ],
      "type" : "String"
    }, {
      "multiplicity" : {
        "lowerBound" : 0,
        "upperBound" : 1
      },
      "name" : "additionalInformation",
      "taggedValues" : [ {
        "tag" : {
          "profile" : "meta::pure::profiles::doc",
          "value" : "doc"
        },
        "value" : "Specification of special instructions of the relevant party."
      } ],
      "type" : "String"
    } ],
    "taggedValues" : [ {
      "tag" : {
        "profile" : "meta::pure::profiles::doc",
        "value" : "doc"
      },
      "value" : "A class to specify contact information within a party: address and, optionally, associated business unit and person. This class also supports the ISDA CSA representation as a single string, through the address attribute."
    } ]
  }
}