{
  "classifierPath" : "meta::pure::metamodel::type::Class",
  "content" : {
    "_type" : "class",
    "constraints" : [ {
      "functionDefinition" : {
        "_type" : "lambda",
        "body" : [ {
          "_type" : "func",
          "function" : "if",
          "parameters" : [ {
            "_type" : "func",
            "function" : "and",
            "parameters" : [ {
              "_type" : "func",
              "function" : "isNotEmpty",
              "parameters" : [ {
                "_type" : "property",
                "parameters" : [ {
                  "_type" : "var",
                  "name" : "this"
                } ],
                "property" : "firstPaymentDate"
              } ]
            }, {
              "_type" : "func",
              "function" : "isNotEmpty",
              "parameters" : [ {
                "_type" : "property",
                "parameters" : [ {
                  "_type" : "var",
                  "name" : "this"
                } ],
                "property" : "lastRegularPaymentDate"
              } ]
            } ]
          }, {
            "_type" : "lambda",
            "body" : [ {
              "_type" : "func",
              "function" : "lessThan",
              "parameters" : [ {
                "_type" : "property",
                "parameters" : [ {
                  "_type" : "var",
                  "name" : "this"
                } ],
                "property" : "firstPaymentDate"
              }, {
                "_type" : "property",
                "parameters" : [ {
                  "_type" : "var",
                  "name" : "this"
                } ],
                "property" : "lastRegularPaymentDate"
              } ]
            } ],
            "parameters" : [ ]
          }, {
            "_type" : "lambda",
            "body" : [ {
              "_type" : "boolean",
              "multiplicity" : {
                "lowerBound" : 1,
                "upperBound" : 1
              },
              "values" : [ true ]
            } ],
            "parameters" : [ ]
          } ]
        } ],
        "parameters" : [ ]
      },
      "name" : "FpML_ird_35_cd_31"
    }, {
      "functionDefinition" : {
        "_type" : "lambda",
        "body" : [ {
          "_type" : "func",
          "function" : "if",
          "parameters" : [ {
            "_type" : "func",
            "function" : "isNotEmpty",
            "parameters" : [ {
              "_type" : "property",
              "parameters" : [ {
                "_type" : "var",
                "name" : "this"
              } ],
              "property" : "paymentDaysOffset"
            } ]
          }, {
            "_type" : "lambda",
            "body" : [ {
              "_type" : "func",
              "function" : "not",
              "parameters" : [ {
                "_type" : "func",
                "function" : "equal",
                "parameters" : [ {
                  "_type" : "property",
                  "parameters" : [ {
                    "_type" : "property",
                    "parameters" : [ {
                      "_type" : "var",
                      "name" : "this"
                    } ],
                    "property" : "paymentDaysOffset"
                  } ],
                  "property" : "periodMultiplier"
                }, {
                  "_type" : "integer",
                  "multiplicity" : {
                    "lowerBound" : 1,
                    "upperBound" : 1
                  },
                  "values" : [ 0 ]
                } ]
              } ]
            } ],
            "parameters" : [ ]
          }, {
            "_type" : "lambda",
            "body" : [ {
              "_type" : "boolean",
              "multiplicity" : {
                "lowerBound" : 1,
                "upperBound" : 1
              },
              "values" : [ true ]
            } ],
            "parameters" : [ ]
          } ]
        } ],
        "parameters" : [ ]
      },
      "name" : "NonZeroPeriodMultiplier"
    } ],
    "name" : "PaymentDates",
    "package" : "cdm::model",
    "properties" : [ {
      "multiplicity" : {
        "lowerBound" : 0,
        "upperBound" : 1
      },
      "name" : "paymentFrequency",
      "taggedValues" : [ {
        "tag" : {
          "profile" : "meta::pure::profiles::doc",
          "value" : "doc"
        },
        "value" : "The frequency at which regular payment dates occur. If the payment frequency is equal to the frequency defined in the calculation period dates component then one calculation period contributes to each payment amount. If the payment frequency is less frequent than the frequency defined in the calculation period dates component then more than one calculation period will contribute to the payment amount. A payment frequency more frequent than the calculation period frequency or one that is not a multiple of the calculation period frequency is invalid. If the payment frequency is of value T (term), the period is defined by the effectiveDate and the terminationDate."
      } ],
      "type" : "cdm::model::Frequency"
    }, {
      "multiplicity" : {
        "lowerBound" : 0,
        "upperBound" : 1
      },
      "name" : "firstPaymentDate",
      "taggedValues" : [ {
        "tag" : {
          "profile" : "meta::pure::profiles::doc",
          "value" : "doc"
        },
        "value" : "The first unadjusted payment date. This day may be subject to adjustment in accordance with any business day convention specified in paymentDatesAdjustments. This element must only be included if there is an initial stub. This date will normally correspond to an unadjusted calculation period start or end date. This is true even if early or delayed payment is specified to be applicable since the actual first payment date will be the specified number of days before or after the applicable adjusted calculation period start or end date with the resulting payment date then being adjusted in accordance with any business day convention specified in paymentDatesAdjustments."
      } ],
      "type" : "Date"
    }, {
      "multiplicity" : {
        "lowerBound" : 0,
        "upperBound" : 1
      },
      "name" : "lastRegularPaymentDate",
      "taggedValues" : [ {
        "tag" : {
          "profile" : "meta::pure::profiles::doc",
          "value" : "doc"
        },
        "value" : "The last regular payment date when specified as a date, as in the FpML interest rate construct. FpML specifies that this date may be subject to adjustment in accordance with any business day convention specified in the paymentDatesAdjustments attribute."
      } ],
      "type" : "Date"
    }, {
      "multiplicity" : {
        "lowerBound" : 0,
        "upperBound" : 1
      },
      "name" : "paymentDateSchedule",
      "taggedValues" : [ {
        "tag" : {
          "profile" : "meta::pure::profiles::doc",
          "value" : "doc"
        },
        "value" : "The payment dates when specified as relative to a set of dates specified somewhere else in the instance document/transaction, e.g. the valuation dates as typically the case for equity swaps, or when specified as a calculation period schedule."
      } ],
      "type" : "cdm::model::PaymentDateSchedule"
    }, {
      "multiplicity" : {
        "lowerBound" : 0,
        "upperBound" : 1
      },
      "name" : "payRelativeTo",
      "taggedValues" : [ {
        "tag" : {
          "profile" : "meta::pure::profiles::doc",
          "value" : "doc"
        },
        "value" : "Specifies whether the payments occur relative to each adjusted calculation period start date or end date, each reset date, valuation date or the last pricing date. Calculation period start date means relative to the start of the first calculation period contributing to a given payment. Similarly, calculation period end date means the end of the last calculation period contributing to a given payment. The valuation date is applicable for Brazilian-CDI and equity swaps."
      } ],
      "type" : "cdm::model::PayRelativeToEnum"
    }, {
      "multiplicity" : {
        "lowerBound" : 0,
        "upperBound" : 1
      },
      "name" : "paymentDaysOffset",
      "taggedValues" : [ {
        "tag" : {
          "profile" : "meta::pure::profiles::doc",
          "value" : "doc"
        },
        "value" : "If early payment or delayed payment is required, specifies the number of days offset that the payment occurs relative to what would otherwise be the unadjusted payment date. The offset can be specified in terms of either calendar or business days. Even in the case of a calendar days offset, the resulting payment date, adjusted for the specified calendar days offset, will still be adjusted in accordance with the specified payment dates adjustments. This element should only be included if early or delayed payment is applicable, i.e. if the periodMultiplier element value is not equal to zero. An early payment would be indicated by a negative periodMultiplier element value and a delayed payment (or payment lag) would be indicated by a positive periodMultiplier element value."
      } ],
      "type" : "cdm::model::Offset"
    }, {
      "multiplicity" : {
        "lowerBound" : 0,
        "upperBound" : 1
      },
      "name" : "paymentDatesAdjustments",
      "taggedValues" : [ {
        "tag" : {
          "profile" : "meta::pure::profiles::doc",
          "value" : "doc"
        },
        "value" : "The definition of the business day convention and financial business centers used for adjusting the payment date if it would otherwise fall on a day that is not a business day in the specified business center."
      } ],
      "type" : "cdm::model::BusinessDayAdjustments"
    } ],
    "stereotypes" : [ {
      "profile" : "cdm::model::metadata",
      "value" : "key"
    } ],
    "taggedValues" : [ {
      "tag" : {
        "profile" : "meta::pure::profiles::doc",
        "value" : "doc"
      },
      "value" : "Specifies the parameters to generate the payment date schedule, either through a parametric representation or by reference to specified dates."
    } ]
  }
}