{
  "classifierPath" : "meta::pure::metamodel::type::Class",
  "content" : {
    "_type" : "class",
    "name" : "ReferenceBank",
    "package" : "cdm::model",
    "properties" : [ {
      "multiplicity" : {
        "lowerBound" : 1,
        "upperBound" : 1
      },
      "name" : "referenceBankId",
      "stereotypes" : [ {
        "profile" : "cdm::model::metadata",
        "value" : "scheme"
      } ],
      "taggedValues" : [ {
        "tag" : {
          "profile" : "meta::pure::profiles::doc",
          "value" : "doc"
        },
        "value" : "An institution (party) identifier, e.g. a bank identifier code (BIC). FpML specifies a referenceBankIdScheme."
      } ],
      "type" : "String"
    }, {
      "multiplicity" : {
        "lowerBound" : 0,
        "upperBound" : 1
      },
      "name" : "referenceBankName",
      "taggedValues" : [ {
        "tag" : {
          "profile" : "meta::pure::profiles::doc",
          "value" : "doc"
        },
        "value" : "The name of the institution (party). A free format string. FpML does not define usage rules for the element."
      } ],
      "type" : "String"
    } ],
    "taggedValues" : [ {
      "tag" : {
        "profile" : "meta::pure::profiles::doc",
        "value" : "doc"
      },
      "value" : "A class to describe an institution (party) identified by means of a coding scheme and an optional name."
    } ]
  }
}