{
  "classifierPath" : "meta::pure::metamodel::type::Class",
  "content" : {
    "_type" : "class",
    "name" : "RegionalGovernmentIssuerType",
    "package" : "cdm::model",
    "properties" : [ {
      "multiplicity" : {
        "lowerBound" : 1,
        "upperBound" : 1
      },
      "name" : "sovereignRecourse",
      "taggedValues" : [ {
        "tag" : {
          "profile" : "meta::pure::profiles::doc",
          "value" : "doc"
        },
        "value" : "Applies to regional governments, local authorities or municipals.  True if entity has recourse to sovereign (e.g. debt guaranteed by government).  False if entity does not have recourse to sovereign."
      } ],
      "type" : "Boolean"
    } ],
    "taggedValues" : [ {
      "tag" : {
        "profile" : "meta::pure::profiles::doc",
        "value" : "doc"
      },
      "value" : "A class to allow specification of different type of Regional government collateral."
    } ]
  }
}