{
  "classifierPath" : "meta::pure::metamodel::type::Class",
  "content" : {
    "_type" : "class",
    "name" : "RelatedAgreement",
    "package" : "cdm::model",
    "properties" : [ {
      "multiplicity" : {
        "lowerBound" : 0,
        "upperBound" : 1
      },
      "name" : "legalAgreement",
      "taggedValues" : [ {
        "tag" : {
          "profile" : "meta::pure::profiles::doc",
          "value" : "doc"
        },
        "value" : "The legal agreement(s) that govern the contract, when such agreement is specified as a reference part of the CDM."
      } ],
      "type" : "cdm::model::LegalAgreement"
    }, {
      "multiplicity" : {
        "lowerBound" : 0,
        "upperBound" : 1
      },
      "name" : "documentationIdentification",
      "taggedValues" : [ {
        "tag" : {
          "profile" : "meta::pure::profiles::doc",
          "value" : "doc"
        },
        "value" : "The identification of the legal document(s) that govern the contract through some of the key terms of such document(s): type of document, the document identifier, the publisher, the document vintage and the agreement date."
      } ],
      "type" : "cdm::model::DocumentationIdentification"
    } ],
    "taggedValues" : [ {
      "tag" : {
        "profile" : "meta::pure::profiles::doc",
        "value" : "doc"
      },
      "value" : "A class for specifying the legal agreements that govern the contract, either as a reference to such agreements when specified as part of the CDM, or through identification of some of the key terms of those documents, such as the type of document, the document identifier, the publisher, the document vintage and the agreement date."
    } ]
  }
}