{
  "classifierPath" : "meta::pure::metamodel::type::Class",
  "content" : {
    "_type" : "class",
    "constraints" : [ {
      "functionDefinition" : {
        "_type" : "lambda",
        "body" : [ {
          "_type" : "func",
          "function" : "equal",
          "parameters" : [ {
            "_type" : "property",
            "parameters" : [ {
              "_type" : "property",
              "parameters" : [ {
                "_type" : "var",
                "name" : "this"
              } ],
              "property" : "before"
            } ],
            "property" : "trade"
          }, {
            "_type" : "property",
            "parameters" : [ {
              "_type" : "property",
              "parameters" : [ {
                "_type" : "var",
                "name" : "this"
              } ],
              "property" : "after"
            } ],
            "property" : "trade"
          } ]
        } ],
        "parameters" : [ ]
      },
      "name" : "Trade"
    } ],
    "name" : "ResetPrimitive",
    "package" : "cdm::model",
    "properties" : [ {
      "multiplicity" : {
        "lowerBound" : 1,
        "upperBound" : 1
      },
      "name" : "before",
      "stereotypes" : [ {
        "profile" : "cdm::model::metadata",
        "value" : "reference"
      } ],
      "taggedValues" : [ {
        "tag" : {
          "profile" : "meta::pure::profiles::doc",
          "value" : "doc"
        },
        "value" : "Represents the TradeState prior applying the Reset primitive."
      } ],
      "type" : "cdm::model::TradeState"
    }, {
      "multiplicity" : {
        "lowerBound" : 1,
        "upperBound" : 1
      },
      "name" : "after",
      "taggedValues" : [ {
        "tag" : {
          "profile" : "meta::pure::profiles::doc",
          "value" : "doc"
        },
        "value" : "Represents the TradeState after to applying the Reset primitive."
      } ],
      "type" : "cdm::model::TradeState"
    } ],
    "taggedValues" : [ {
      "tag" : {
        "profile" : "meta::pure::profiles::doc",
        "value" : "doc"
      },
      "value" : "Defines the primitive event to represent a reset. For details of how the TradeState is changed between the `before` and `after` TradeStates, see the corresponding Create_ResetPrimitive function."
    } ]
  }
}