{
  "classifierPath" : "meta::pure::metamodel::type::Class",
  "content" : {
    "_type" : "class",
    "name" : "ResourceLength",
    "package" : "cdm::model",
    "properties" : [ {
      "multiplicity" : {
        "lowerBound" : 1,
        "upperBound" : 1
      },
      "name" : "lengthUnit",
      "taggedValues" : [ {
        "tag" : {
          "profile" : "meta::pure::profiles::doc",
          "value" : "doc"
        },
        "value" : "The length unit of the resource. For example, pages (pdf, text documents) or time (audio, video files)."
      } ],
      "type" : "cdm::model::LengthUnitEnum"
    }, {
      "multiplicity" : {
        "lowerBound" : 1,
        "upperBound" : 1
      },
      "name" : "lengthValue",
      "taggedValues" : [ {
        "tag" : {
          "profile" : "meta::pure::profiles::doc",
          "value" : "doc"
        },
        "value" : "The length value of the resource."
      } ],
      "type" : "Float"
    } ],
    "taggedValues" : [ {
      "tag" : {
        "profile" : "meta::pure::profiles::doc",
        "value" : "doc"
      },
      "value" : "A class to indicate the length of the resource."
    } ]
  }
}