{
  "classifierPath" : "meta::pure::metamodel::type::Class",
  "content" : {
    "_type" : "class",
    "name" : "SecurityPayout",
    "package" : "cdm::model",
    "properties" : [ {
      "multiplicity" : {
        "lowerBound" : 1
      },
      "name" : "securityLeg",
      "taggedValues" : [ {
        "tag" : {
          "profile" : "meta::pure::profiles::doc",
          "value" : "doc"
        },
        "value" : "Each SecurityLeg represent a buy/sell at different dates, typically 1 near leg and 1 far leg in a securities financing transaction."
      } ],
      "type" : "cdm::model::SecurityLeg"
    }, {
      "multiplicity" : {
        "lowerBound" : 0,
        "upperBound" : 1
      },
      "name" : "initialMargin",
      "taggedValues" : [ {
        "tag" : {
          "profile" : "meta::pure::profiles::doc",
          "value" : "doc"
        },
        "value" : "RepoDurationEnum."
      } ],
      "type" : "cdm::model::InitialMargin"
    }, {
      "multiplicity" : {
        "lowerBound" : 0,
        "upperBound" : 1
      },
      "name" : "repoDuration",
      "taggedValues" : [ {
        "tag" : {
          "profile" : "meta::pure::profiles::doc",
          "value" : "doc"
        },
        "value" : "A duration code for the repo transaction. This defines a type of a repo transaction with fixed duration."
      } ],
      "type" : "cdm::model::RepoDurationEnum"
    }, {
      "multiplicity" : {
        "lowerBound" : 1
      },
      "name" : "securityValuation",
      "taggedValues" : [ {
        "tag" : {
          "profile" : "meta::pure::profiles::doc",
          "value" : "doc"
        },
        "value" : "The underlying securities and their valuation for the security leg."
      } ],
      "type" : "cdm::model::SecurityValuation"
    } ],
    "stereotypes" : [ {
      "profile" : "cdm::model::metadata",
      "value" : "key"
    } ],
    "taggedValues" : [ {
      "tag" : {
        "profile" : "meta::pure::profiles::doc",
        "value" : "doc"
      },
      "value" : "Security payout specification in case the product payout involves some form of security collateral, as in a securities financing transaction."
    } ]
  }
}