{
  "classifierPath" : "meta::pure::metamodel::type::Enumeration",
  "content" : {
    "_type" : "Enumeration",
    "name" : "SpreadScheduleTypeEnum",
    "package" : "cdm::model",
    "taggedValues" : [ {
      "tag" : {
        "profile" : "meta::pure::profiles::doc",
        "value" : "doc"
      },
      "value" : "The enumerated values to specify a long or short spread value."
    } ],
    "values" : [ {
      "taggedValues" : [ {
        "tag" : {
          "profile" : "meta::pure::profiles::doc",
          "value" : "doc"
        },
        "value" : "Represents a Long Spread Schedule. Spread schedules defined as 'Long' will be applied to Long Positions."
      } ],
      "value" : "Long"
    }, {
      "taggedValues" : [ {
        "tag" : {
          "profile" : "meta::pure::profiles::doc",
          "value" : "doc"
        },
        "value" : "Represents a Short Spread Schedule. Spread schedules defined as 'Short' will be applied to Short Positions."
      } ],
      "value" : "Short"
    } ]
  }
}