{
  "classifierPath" : "meta::pure::metamodel::type::Class",
  "content" : {
    "_type" : "class",
    "name" : "SubstitutedRegimeTerms",
    "package" : "cdm::model",
    "properties" : [ {
      "multiplicity" : {
        "lowerBound" : 1,
        "upperBound" : 1
      },
      "name" : "party",
      "taggedValues" : [ {
        "tag" : {
          "profile" : "meta::pure::profiles::doc",
          "value" : "doc"
        },
        "value" : "The party for which the regime terms are being specified when acting as collateral taker."
      } ],
      "type" : "cdm::model::CounterpartyRoleEnum"
    }, {
      "multiplicity" : {
        "lowerBound" : 1,
        "upperBound" : 1
      },
      "name" : "isApplicable",
      "taggedValues" : [ {
        "tag" : {
          "profile" : "meta::pure::profiles::doc",
          "value" : "doc"
        },
        "value" : "The specification of whether the regime is elected as applicable to the party when acting as collateral taker."
      } ],
      "type" : "Boolean"
    } ],
    "taggedValues" : [ {
      "tag" : {
        "profile" : "meta::pure::profiles::doc",
        "value" : "doc"
      },
      "value" : "Specifies the applicability of the Substituted Regime as denoted in the Substituted Regime Table as part of certain legal agreements, such as such as the ISDA 2016 and 2018 CSA for Initial Margin."
    } ]
  }
}