{
  "classifierPath" : "meta::pure::metamodel::type::Class",
  "content" : {
    "_type" : "class",
    "name" : "Substitution",
    "package" : "cdm::model",
    "properties" : [ {
      "multiplicity" : {
        "lowerBound" : 1,
        "upperBound" : 1
      },
      "name" : "needsConsent",
      "taggedValues" : [ {
        "tag" : {
          "profile" : "meta::pure::profiles::doc",
          "value" : "doc"
        },
        "value" : "The election as to whether the Pledgor/Obligor/Chargor must obtain the Secured Party’s consent for any collateral substitution. ISDA 2016 Credit Support Annex for Initial Margin, paragraph 13, General Principles, (f)(ii): Consent. | ISDA 2016 Credit Support Annex for Variation Margin, paragraph 13, (f)(ii): Consent."
      } ],
      "type" : "Boolean"
    }, {
      "multiplicity" : {
        "lowerBound" : 0,
        "upperBound" : 1
      },
      "name" : "substitutionDateLanguage",
      "taggedValues" : [ {
        "tag" : {
          "profile" : "meta::pure::profiles::doc",
          "value" : "doc"
        },
        "value" : "Substiution   Date  has  the  meaning  specified  in  Paragraph4(d)(ii),   unless   otherwise   specified."
      } ],
      "type" : "String"
    }, {
      "multiplicity" : {
        "lowerBound" : 0,
        "upperBound" : 1
      },
      "name" : "specificConsentLanguage",
      "taggedValues" : [ {
        "tag" : {
          "profile" : "meta::pure::profiles::doc",
          "value" : "doc"
        },
        "value" : "Specific consent language might be specified by the parties."
      } ],
      "type" : "String"
    } ],
    "taggedValues" : [ {
      "tag" : {
        "profile" : "meta::pure::profiles::doc",
        "value" : "doc"
      },
      "value" : "A class to specify the conditions under which the Security Provider can substitute posted collateral."
    } ]
  }
}