{
  "classifierPath" : "meta::pure::metamodel::type::Class",
  "content" : {
    "_type" : "class",
    "name" : "AdjustedRelativeDateOffset",
    "package" : "FpML::model",
    "properties" : [ {
      "multiplicity" : {
        "lowerBound" : 0,
        "upperBound" : 1
      },
      "name" : "relativeDateAdjustments",
      "taggedValues" : [ {
        "tag" : {
          "profile" : "meta::pure::profiles::doc",
          "value" : "doc"
        },
        "value" : "The business day convention and financial business centers used for adjusting the relative date if it would otherwise fall on a day that is not a business date in the specified business centers."
      } ],
      "type" : "FpML::model::BusinessDayAdjustments"
    } ],
    "superTypes" : [ "FpML::model::RelativeDateOffset" ],
    "taggedValues" : [ {
      "tag" : {
        "profile" : "meta::pure::profiles::doc",
        "value" : "doc"
      },
      "value" : "A type defining a date (referred to as the derived date) as a relative offset from another date (referred to as the anchor date) plus optional date adjustments."
    } ]
  }
}