{
  "classifierPath" : "meta::pure::metamodel::type::Enumeration",
  "content" : {
    "_type" : "Enumeration",
    "name" : "BullionTypeEnum",
    "package" : "FpML::model",
    "taggedValues" : [ {
      "tag" : {
        "profile" : "meta::pure::profiles::doc",
        "value" : "doc"
      },
      "value" : "Defines which type of bullion is applicable for a Bullion Transaction."
    } ],
    "values" : [ {
      "value" : "Gold"
    }, {
      "value" : "Palladium"
    }, {
      "value" : "Platinum"
    }, {
      "value" : "Silver"
    }, {
      "value" : "Rhodium"
    }, {
      "value" : "RhodiumSponge"
    }, {
      "value" : "Iridium"
    }, {
      "value" : "Ruthenium"
    }, {
      "value" : "Osmium"
    } ]
  }
}