{
  "classifierPath" : "meta::pure::metamodel::type::Class",
  "content" : {
    "_type" : "class",
    "name" : "BusinessCenters",
    "package" : "FpML::model",
    "properties" : [ {
      "multiplicity" : {
        "lowerBound" : 0
      },
      "name" : "businessCenter",
      "type" : "FpML::model::BusinessCenter"
    }, {
      "multiplicity" : {
        "lowerBound" : 0,
        "upperBound" : 1
      },
      "name" : "id",
      "type" : "String"
    } ],
    "taggedValues" : [ {
      "tag" : {
        "profile" : "meta::pure::profiles::doc",
        "value" : "doc"
      },
      "value" : "A type for defining business day calendar used in determining whether a day is a business day or not. A list of business day calendar locations may be ordered in the document alphabetically based on business day calendar location code. An FpML document containing an unordered business day calendar location list is still regarded as a conformant document."
    } ]
  }
}