{
  "classifierPath" : "meta::pure::metamodel::type::Enumeration",
  "content" : {
    "_type" : "Enumeration",
    "name" : "BuySellEnum",
    "package" : "FpML::model",
    "values" : [ {
      "value" : "Buyer"
    }, {
      "value" : "Seller"
    } ]
  }
}