{
  "classifierPath" : "meta::pure::metamodel::type::Enumeration",
  "content" : {
    "_type" : "Enumeration",
    "name" : "CalculationAgentPartyEnum",
    "package" : "FpML::model",
    "taggedValues" : [ {
      "tag" : {
        "profile" : "meta::pure::profiles::doc",
        "value" : "doc"
      },
      "value" : "The specification of how a calculation agent will be determined."
    } ],
    "values" : [ {
      "value" : "ExercisingParty"
    }, {
      "value" : "NonExercisingParty"
    }, {
      "value" : "AsSpecifiedInMasterAgreement"
    }, {
      "value" : "AsSpecifiedInStandardTermsSupplement"
    }, {
      "value" : "Both"
    } ]
  }
}