{
  "classifierPath" : "meta::pure::metamodel::type::Enumeration",
  "content" : {
    "_type" : "Enumeration",
    "name" : "DeliveryDatesEnum",
    "package" : "FpML::model",
    "taggedValues" : [ {
      "tag" : {
        "profile" : "meta::pure::profiles::doc",
        "value" : "doc"
      },
      "value" : "Deprecated: In respect of a Transaction and a Commodity Reference Price, the relevant date or month for delivery of the underlying Commodity."
    } ],
    "values" : [ {
      "value" : "CalculationPeriod"
    }, {
      "value" : "FirstNearby"
    }, {
      "value" : "SecondNearby"
    }, {
      "value" : "ThirdNearby"
    }, {
      "value" : "FourthNearby"
    }, {
      "value" : "FifthNearby"
    }, {
      "value" : "SixthNearby"
    }, {
      "value" : "SeventhNearby"
    }, {
      "value" : "EighthNearby"
    }, {
      "value" : "NinthNearby"
    }, {
      "value" : "TenthNearby"
    }, {
      "value" : "EleventhNearby"
    }, {
      "value" : "TwelfthNearby"
    }, {
      "value" : "ThirteenthNearby"
    }, {
      "value" : "FourteenthNearby"
    }, {
      "value" : "FifteenthNearby"
    }, {
      "value" : "SixteenthNearby"
    }, {
      "value" : "SeventeenthNearby"
    }, {
      "value" : "EighteenthNearby"
    }, {
      "value" : "NineteenthNearby"
    }, {
      "value" : "TwentiethNearby"
    }, {
      "value" : "TwentyFirstNearby"
    }, {
      "value" : "TwentySecondNearby"
    }, {
      "value" : "TwentyThirdNearby"
    }, {
      "value" : "TwentyFourthNearby"
    }, {
      "value" : "TwentyFifthNearby"
    }, {
      "value" : "TwentySixthNearby"
    }, {
      "value" : "TwentySeventhNearby"
    }, {
      "value" : "TwentyEighthNearby"
    }, {
      "value" : "TwentyNinthNearby"
    }, {
      "value" : "ThirtiethNearby"
    }, {
      "value" : "ThirtyFirstNearby"
    }, {
      "value" : "ThirtySecondNearby"
    }, {
      "value" : "ThirtyThirdNearby"
    }, {
      "value" : "ThirtyFourthNearby"
    }, {
      "value" : "ThirtyFifthNearby"
    }, {
      "value" : "ThirtySixthNearby"
    }, {
      "value" : "ThirtySeventhNearby"
    }, {
      "value" : "ThirtyEighthNearby"
    }, {
      "value" : "ThirtyNinthNearby"
    }, {
      "value" : "FortiethNearby"
    }, {
      "value" : "FortyFirstNearby"
    }, {
      "value" : "FortySecondNearby"
    }, {
      "value" : "FortyThirdNearby"
    }, {
      "value" : "FortyFourthNearby"
    }, {
      "value" : "FortyFifthNearby"
    }, {
      "value" : "FortySixthNearby"
    }, {
      "value" : "FortySeventhNearby"
    }, {
      "value" : "FortyEighthNearby"
    }, {
      "value" : "FortyNinthNearby"
    }, {
      "value" : "FiftiethNearby"
    }, {
      "value" : "FiftyFirstNearby"
    }, {
      "value" : "FiftySecondNearby"
    }, {
      "value" : "FiftyThirdNearby"
    }, {
      "value" : "FiftyFourthNearby"
    }, {
      "value" : "FiftyFifthNearby"
    }, {
      "value" : "FiftySixthNearby"
    }, {
      "value" : "FiftySeventhNearby"
    }, {
      "value" : "FiftyEighthNearby"
    }, {
      "value" : "FiftyNinthNearby"
    }, {
      "value" : "Spot"
    }, {
      "value" : "FirstNearbyWeek"
    }, {
      "value" : "SecondNearbyWeek"
    }, {
      "value" : "ThirdNearbyWeek"
    }, {
      "value" : "FourthNearbyWeek"
    }, {
      "value" : "FifthNearbyWeek"
    }, {
      "value" : "SixthNearbyWeek"
    }, {
      "value" : "SeventhNearbyWeek"
    }, {
      "value" : "EighthNearbyWeek"
    }, {
      "value" : "NinthNearbyWeek"
    }, {
      "value" : "TenthNearbyWeek"
    }, {
      "value" : "EleventhNearbyWeek"
    }, {
      "value" : "TwelfthNearbyWeek"
    }, {
      "value" : "ThirteenthNearbyWeek"
    }, {
      "value" : "FourteenthNearbyWeek"
    }, {
      "value" : "FifteenthNearbyWeek"
    }, {
      "value" : "SixteenthNearbyWeek"
    }, {
      "value" : "SeventeenthNearbyWeek"
    }, {
      "value" : "EighteenthNearbyWeek"
    }, {
      "value" : "NineteenthNearbyWeek"
    }, {
      "value" : "TwentiethNearbyWeek"
    }, {
      "value" : "TwentyFirstNearbyWeek"
    }, {
      "value" : "TwentySecondNearbyWeek"
    }, {
      "value" : "TwentyThirdNearbyWeek"
    }, {
      "value" : "TwentyFourthearbyWeek"
    }, {
      "value" : "TwentyFifthNearbyWeek"
    }, {
      "value" : "TwentySixthNearbyWeek"
    }, {
      "value" : "TwentySeventhNearbyWeek"
    }, {
      "value" : "TwentyEighthNearbyWeek"
    }, {
      "value" : "TwentyNinthNearbyWeek"
    }, {
      "value" : "ThirtiethNearbyWeek"
    }, {
      "value" : "ThirtyFirstNearbyWeek"
    }, {
      "value" : "ThirtySecondNearbyWeek"
    }, {
      "value" : "ThirtyThirdNearbyWeek"
    }, {
      "value" : "ThirtyFourthNearbyWeek"
    }, {
      "value" : "ThirtyFifthNearbyWeek"
    }, {
      "value" : "ThirtySixthNearbyWeek"
    }, {
      "value" : "ThirtySeventhNearbyWeek"
    }, {
      "value" : "ThirtyEighthNearbyWeek"
    }, {
      "value" : "ThirtyNinthNearbyWeek"
    }, {
      "value" : "FortiethNearbyWeek"
    }, {
      "value" : "FortyFirstNearbyWeek"
    }, {
      "value" : "FortySecondNearbyWeek"
    }, {
      "value" : "FortyThirdNearbyWeek"
    }, {
      "value" : "FortyFourthNearbyWeek"
    }, {
      "value" : "FortyFifthNearbyWeek"
    }, {
      "value" : "FortySixthNearbyWeek"
    }, {
      "value" : "FortySeventhNearbyWeek"
    }, {
      "value" : "FortyEighthNearbyWeek"
    }, {
      "value" : "FortyNinthNearbyWeek"
    }, {
      "value" : "FiftiethNearbyWeek"
    }, {
      "value" : "FiftyFirstNearbyWeek"
    }, {
      "value" : "FiftySecondNearbyWeek"
    } ]
  }
}