{
  "classifierPath" : "meta::pure::metamodel::type::Class",
  "content" : {
    "_type" : "class",
    "constraints" : [ {
      "functionDefinition" : {
        "_type" : "lambda",
        "body" : [ {
          "_type" : "func",
          "function" : "or",
          "parameters" : [ {
            "_type" : "func",
            "function" : "and",
            "parameters" : [ {
              "_type" : "func",
              "function" : "isNotEmpty",
              "parameters" : [ {
                "_type" : "property",
                "parameters" : [ {
                  "_type" : "var",
                  "name" : "this"
                } ],
                "property" : "masterConfirmation"
              } ]
            }, {
              "_type" : "func",
              "function" : "isEmpty",
              "parameters" : [ {
                "_type" : "property",
                "parameters" : [ {
                  "_type" : "var",
                  "name" : "this"
                } ],
                "property" : "brokerConfirmation"
              } ]
            } ]
          }, {
            "_type" : "func",
            "function" : "and",
            "parameters" : [ {
              "_type" : "func",
              "function" : "isEmpty",
              "parameters" : [ {
                "_type" : "property",
                "parameters" : [ {
                  "_type" : "var",
                  "name" : "this"
                } ],
                "property" : "masterConfirmation"
              } ]
            }, {
              "_type" : "func",
              "function" : "isNotEmpty",
              "parameters" : [ {
                "_type" : "property",
                "parameters" : [ {
                  "_type" : "var",
                  "name" : "this"
                } ],
                "property" : "brokerConfirmation"
              } ]
            } ]
          } ]
        } ],
        "parameters" : [ ]
      },
      "name" : "c1_choice"
    } ],
    "name" : "Documentation",
    "package" : "FpML::model",
    "properties" : [ {
      "multiplicity" : {
        "lowerBound" : 0,
        "upperBound" : 1
      },
      "name" : "masterAgreement",
      "taggedValues" : [ {
        "tag" : {
          "profile" : "meta::pure::profiles::doc",
          "value" : "doc"
        },
        "value" : "The agreement executed between the parties and intended to govern all OTC derivatives transactions between those parties."
      } ],
      "type" : "FpML::model::MasterAgreement"
    }, {
      "multiplicity" : {
        "lowerBound" : 0,
        "upperBound" : 1
      },
      "name" : "masterConfirmation",
      "taggedValues" : [ {
        "tag" : {
          "profile" : "meta::pure::profiles::doc",
          "value" : "doc"
        },
        "value" : "The agreement executed between the parties and intended to govern all OTC derivatives transactions between those parties."
      } ],
      "type" : "FpML::model::MasterConfirmation"
    }, {
      "multiplicity" : {
        "lowerBound" : 0,
        "upperBound" : 1
      },
      "name" : "brokerConfirmation",
      "taggedValues" : [ {
        "tag" : {
          "profile" : "meta::pure::profiles::doc",
          "value" : "doc"
        },
        "value" : "Specifies the deails for a broker confirm."
      } ],
      "type" : "FpML::model::BrokerConfirmation"
    }, {
      "multiplicity" : {
        "lowerBound" : 0
      },
      "name" : "contractualDefinitions",
      "taggedValues" : [ {
        "tag" : {
          "profile" : "meta::pure::profiles::doc",
          "value" : "doc"
        },
        "value" : "The definitions such as those published by ISDA that will define the terms of the trade."
      } ],
      "type" : "FpML::model::ContractualDefinitions"
    }, {
      "multiplicity" : {
        "lowerBound" : 0
      },
      "name" : "contractualTermsSupplement",
      "taggedValues" : [ {
        "tag" : {
          "profile" : "meta::pure::profiles::doc",
          "value" : "doc"
        },
        "value" : "A contractual supplement (such as those published by ISDA) that will apply to the trade."
      } ],
      "type" : "FpML::model::ContractualTermsSupplement"
    }, {
      "multiplicity" : {
        "lowerBound" : 0
      },
      "name" : "contractualMatrix",
      "taggedValues" : [ {
        "tag" : {
          "profile" : "meta::pure::profiles::doc",
          "value" : "doc"
        },
        "value" : "A reference to a contractual matrix of elected terms/values (such as those published by ISDA) that shall be deemed to apply to the trade. The applicable matrix is identified by reference to a name and optionally a publication date. Depending on the structure of the matrix, an additional term (specified in the matrixTerm element) may be required to further identify a subset of applicable terms/values within the matrix."
      } ],
      "type" : "FpML::model::ContractualMatrix"
    }, {
      "multiplicity" : {
        "lowerBound" : 0,
        "upperBound" : 1
      },
      "name" : "creditSupportAgreement",
      "taggedValues" : [ {
        "tag" : {
          "profile" : "meta::pure::profiles::doc",
          "value" : "doc"
        },
        "value" : "The agreement executed between the parties and intended to govern collateral arrangement for all OTC derivatives transactions between those parties."
      } ],
      "type" : "FpML::model::CreditSupportAgreement"
    }, {
      "multiplicity" : {
        "lowerBound" : 0
      },
      "name" : "otherAgreement",
      "taggedValues" : [ {
        "tag" : {
          "profile" : "meta::pure::profiles::doc",
          "value" : "doc"
        },
        "value" : "Any other agreement executed between the parties."
      } ],
      "type" : "FpML::model::OtherAgreement"
    }, {
      "multiplicity" : {
        "lowerBound" : 0
      },
      "name" : "attachment",
      "taggedValues" : [ {
        "tag" : {
          "profile" : "meta::pure::profiles::doc",
          "value" : "doc"
        },
        "value" : "A human readable document related to this transaction, for example a confirmation."
      } ],
      "type" : "FpML::model::Resource"
    } ],
    "taggedValues" : [ {
      "tag" : {
        "profile" : "meta::pure::profiles::doc",
        "value" : "doc"
      },
      "value" : "An entity for defining the definitions that govern the document and should include the year and type of definitions referenced, along with any relevant documentation (such as master agreement) and the date it was signed."
    } ]
  }
}