{
  "classifierPath" : "meta::pure::metamodel::type::Class",
  "content" : {
    "_type" : "class",
    "name" : "FailureToPay",
    "package" : "FpML::model",
    "properties" : [ {
      "multiplicity" : {
        "lowerBound" : 0,
        "upperBound" : 1
      },
      "name" : "applicable",
      "taggedValues" : [ {
        "tag" : {
          "profile" : "meta::pure::profiles::doc",
          "value" : "doc"
        },
        "value" : "Indicates whether the failure to pay provision is applicable."
      } ],
      "type" : "Boolean"
    }, {
      "multiplicity" : {
        "lowerBound" : 0,
        "upperBound" : 1
      },
      "name" : "gracePeriodExtension",
      "taggedValues" : [ {
        "tag" : {
          "profile" : "meta::pure::profiles::doc",
          "value" : "doc"
        },
        "value" : "If this element is specified, indicates whether or not a grace period extension is applicable. ISDA 2003 Term: Grace Period Extension Applicable."
      } ],
      "type" : "FpML::model::GracePeriodExtension"
    }, {
      "multiplicity" : {
        "lowerBound" : 0,
        "upperBound" : 1
      },
      "name" : "paymentRequirement",
      "taggedValues" : [ {
        "tag" : {
          "profile" : "meta::pure::profiles::doc",
          "value" : "doc"
        },
        "value" : "Specifies a threshold for the failure to pay credit event. Market standard is USD 1,000,000 (JPY 100,000,000 for Japanese Yen trades) or its equivalent in the relevant obligation currency. This is applied on an aggregate basis across all Obligations of the Reference Entity. Intended to prevent technical/operational errors from triggering credit events. ISDA 2003 Term: Payment Requirement."
      } ],
      "type" : "FpML::model::Money"
    } ]
  }
}