{
  "classifierPath" : "meta::pure::metamodel::type::Enumeration",
  "content" : {
    "_type" : "Enumeration",
    "name" : "FxBarrierStyleEnum",
    "package" : "FpML::model",
    "taggedValues" : [ {
      "tag" : {
        "profile" : "meta::pure::profiles::doc",
        "value" : "doc"
      },
      "value" : "Defines the barrier observation style i.e. continuous (American) or discrete (Euriopean)."
    } ],
    "values" : [ {
      "value" : "American"
    }, {
      "value" : "European"
    } ]
  }
}