{
  "classifierPath" : "meta::pure::metamodel::type::Class",
  "content" : {
    "_type" : "class",
    "name" : "GenericAsset",
    "package" : "FpML::model",
    "superTypes" : [ "FpML::model::IdentifiedAsset" ],
    "taggedValues" : [ {
      "tag" : {
        "profile" : "meta::pure::profiles::doc",
        "value" : "doc"
      },
      "value" : "Concrete type to support public/private identifiers and classification (ISIN, CFI, ...) for an instrument of unspecified type. Derived as no-operation extension on IdentifedAsset (abstract base type)."
    } ]
  }
}