{
  "classifierPath" : "meta::pure::metamodel::type::Enumeration",
  "content" : {
    "_type" : "Enumeration",
    "name" : "LcAutoAdjustEnum",
    "package" : "FpML::model",
    "taggedValues" : [ {
      "tag" : {
        "profile" : "meta::pure::profiles::doc",
        "value" : "doc"
      },
      "value" : "The type of automatic adjustment that a Letter of Credit can exhibit."
    } ],
    "values" : [ {
      "value" : "AutoDecrease"
    }, {
      "value" : "AutoIncrease"
    }, {
      "value" : "AutoIncreaseOrDecrease"
    } ]
  }
}