{
  "classifierPath" : "meta::pure::metamodel::type::Enumeration",
  "content" : {
    "_type" : "Enumeration",
    "name" : "LoanTradingDocTypeEnum",
    "package" : "FpML::model",
    "taggedValues" : [ {
      "tag" : {
        "profile" : "meta::pure::profiles::doc",
        "value" : "doc"
      },
      "value" : "A list describing the type of documentation used to settle a secondary market syndicated loan trade."
    } ],
    "values" : [ {
      "value" : "Distressed"
    }, {
      "value" : "Par"
    } ]
  }
}