{
  "classifierPath" : "meta::pure::metamodel::type::Class",
  "content" : {
    "_type" : "class",
    "name" : "ManualExercise",
    "package" : "FpML::model",
    "properties" : [ {
      "multiplicity" : {
        "lowerBound" : 0,
        "upperBound" : 1
      },
      "name" : "exerciseNotice",
      "taggedValues" : [ {
        "tag" : {
          "profile" : "meta::pure::profiles::doc",
          "value" : "doc"
        },
        "value" : "Definition of the party to whom notice of exercise should be given."
      } ],
      "type" : "FpML::model::ExerciseNotice"
    }, {
      "multiplicity" : {
        "lowerBound" : 0,
        "upperBound" : 1
      },
      "name" : "fallbackExercise",
      "taggedValues" : [ {
        "tag" : {
          "profile" : "meta::pure::profiles::doc",
          "value" : "doc"
        },
        "value" : "If fallback exercise is specified then the notional amount of the underlying swap, not previously exercised under the swaption, will be automatically exercised at the expiration time on the expiration date if at such time the buyer is in-the-money, provided that the difference between the settlement rate and the fixed rate under the relevant underlying swap is not less than one tenth of a percentage point (0.10% or 0.001). The term in-the-money is assumed to have the meaning defined in the 2000 ISDA Definitions, Section 17.4. In-the-money."
      } ],
      "type" : "Boolean"
    } ],
    "taggedValues" : [ {
      "tag" : {
        "profile" : "meta::pure::profiles::doc",
        "value" : "doc"
      },
      "value" : "A type defining manual exercise, i.e. that the option buyer counterparty must give notice to the option seller of exercise."
    } ]
  }
}