{
  "classifierPath" : "meta::pure::metamodel::type::Class",
  "content" : {
    "_type" : "class",
    "constraints" : [ {
      "functionDefinition" : {
        "_type" : "lambda",
        "body" : [ {
          "_type" : "func",
          "function" : "forAll",
          "parameters" : [ {
            "_type" : "property",
            "parameters" : [ {
              "_type" : "var",
              "name" : "this"
            } ],
            "property" : "minimumNumberOfOptions"
          }, {
            "_type" : "lambda",
            "body" : [ {
              "_type" : "func",
              "function" : "greaterThanEqual",
              "parameters" : [ {
                "_type" : "var",
                "name" : "x"
              }, {
                "_type" : "integer",
                "multiplicity" : {
                  "lowerBound" : 1,
                  "upperBound" : 1
                },
                "values" : [ 0 ]
              } ]
            } ],
            "parameters" : [ {
              "_type" : "var",
              "class" : "Decimal",
              "multiplicity" : {
                "lowerBound" : 1,
                "upperBound" : 1
              },
              "name" : "x"
            } ]
          } ]
        } ],
        "parameters" : [ ]
      },
      "name" : "c1_range"
    }, {
      "functionDefinition" : {
        "_type" : "lambda",
        "body" : [ {
          "_type" : "func",
          "function" : "forAll",
          "parameters" : [ {
            "_type" : "property",
            "parameters" : [ {
              "_type" : "var",
              "name" : "this"
            } ],
            "property" : "maximumNumberOfOptions"
          }, {
            "_type" : "lambda",
            "body" : [ {
              "_type" : "func",
              "function" : "greaterThanEqual",
              "parameters" : [ {
                "_type" : "var",
                "name" : "x"
              }, {
                "_type" : "integer",
                "multiplicity" : {
                  "lowerBound" : 1,
                  "upperBound" : 1
                },
                "values" : [ 0 ]
              } ]
            } ],
            "parameters" : [ {
              "_type" : "var",
              "class" : "Decimal",
              "multiplicity" : {
                "lowerBound" : 1,
                "upperBound" : 1
              },
              "name" : "x"
            } ]
          } ]
        } ],
        "parameters" : [ ]
      },
      "name" : "c2_range"
    }, {
      "functionDefinition" : {
        "_type" : "lambda",
        "body" : [ {
          "_type" : "func",
          "function" : "or",
          "parameters" : [ {
            "_type" : "func",
            "function" : "and",
            "parameters" : [ {
              "_type" : "func",
              "function" : "isNotEmpty",
              "parameters" : [ {
                "_type" : "property",
                "parameters" : [ {
                  "_type" : "var",
                  "name" : "this"
                } ],
                "property" : "minimumNotionalAmount"
              } ]
            }, {
              "_type" : "func",
              "function" : "isEmpty",
              "parameters" : [ {
                "_type" : "property",
                "parameters" : [ {
                  "_type" : "var",
                  "name" : "this"
                } ],
                "property" : "minimumNumberOfOptions"
              } ]
            } ]
          }, {
            "_type" : "func",
            "function" : "and",
            "parameters" : [ {
              "_type" : "func",
              "function" : "isEmpty",
              "parameters" : [ {
                "_type" : "property",
                "parameters" : [ {
                  "_type" : "var",
                  "name" : "this"
                } ],
                "property" : "minimumNotionalAmount"
              } ]
            }, {
              "_type" : "func",
              "function" : "isNotEmpty",
              "parameters" : [ {
                "_type" : "property",
                "parameters" : [ {
                  "_type" : "var",
                  "name" : "this"
                } ],
                "property" : "minimumNumberOfOptions"
              } ]
            } ]
          } ]
        } ],
        "parameters" : [ ]
      },
      "name" : "c3_choice"
    }, {
      "functionDefinition" : {
        "_type" : "lambda",
        "body" : [ {
          "_type" : "func",
          "function" : "or",
          "parameters" : [ {
            "_type" : "func",
            "function" : "and",
            "parameters" : [ {
              "_type" : "func",
              "function" : "isNotEmpty",
              "parameters" : [ {
                "_type" : "property",
                "parameters" : [ {
                  "_type" : "var",
                  "name" : "this"
                } ],
                "property" : "maximumNotionalAmount"
              } ]
            }, {
              "_type" : "func",
              "function" : "isEmpty",
              "parameters" : [ {
                "_type" : "property",
                "parameters" : [ {
                  "_type" : "var",
                  "name" : "this"
                } ],
                "property" : "maximumNumberOfOptions"
              } ]
            } ]
          }, {
            "_type" : "func",
            "function" : "and",
            "parameters" : [ {
              "_type" : "func",
              "function" : "isEmpty",
              "parameters" : [ {
                "_type" : "property",
                "parameters" : [ {
                  "_type" : "var",
                  "name" : "this"
                } ],
                "property" : "maximumNotionalAmount"
              } ]
            }, {
              "_type" : "func",
              "function" : "isNotEmpty",
              "parameters" : [ {
                "_type" : "property",
                "parameters" : [ {
                  "_type" : "var",
                  "name" : "this"
                } ],
                "property" : "maximumNumberOfOptions"
              } ]
            } ]
          } ]
        } ],
        "parameters" : [ ]
      },
      "name" : "c4_choice"
    } ],
    "name" : "MultipleExercise",
    "package" : "FpML::model",
    "properties" : [ {
      "multiplicity" : {
        "lowerBound" : 0
      },
      "name" : "notionalReference",
      "taggedValues" : [ {
        "tag" : {
          "profile" : "meta::pure::profiles::doc",
          "value" : "doc"
        },
        "value" : "A pointer style reference to the associated notional schedule defined elsewhere in the document. This element has been made optional as part of its integration in the OptionBaseExtended, because not required for the options on securities."
      } ],
      "type" : "FpML::model::NotionalReference"
    }, {
      "multiplicity" : {
        "lowerBound" : 0,
        "upperBound" : 1
      },
      "name" : "integralMultipleAmount",
      "taggedValues" : [ {
        "tag" : {
          "profile" : "meta::pure::profiles::doc",
          "value" : "doc"
        },
        "value" : "A notional amount which restricts the amount of notional that can be exercised when partial exercise or multiple exercise is applicable. The integral multiple amount defines a lower limit of notional that can be exercised and also defines a unit multiple of notional that can be exercised, i.e. only integer multiples of this amount can be exercised."
      } ],
      "type" : "Decimal"
    }, {
      "multiplicity" : {
        "lowerBound" : 0,
        "upperBound" : 1
      },
      "name" : "minimumNotionalAmount",
      "taggedValues" : [ {
        "tag" : {
          "profile" : "meta::pure::profiles::doc",
          "value" : "doc"
        },
        "value" : "The minimum notional amount that can be exercised on a given exercise date. See multipleExercise."
      } ],
      "type" : "Decimal"
    }, {
      "multiplicity" : {
        "lowerBound" : 0,
        "upperBound" : 1
      },
      "name" : "minimumNumberOfOptions",
      "taggedValues" : [ {
        "tag" : {
          "profile" : "meta::pure::profiles::doc",
          "value" : "doc"
        },
        "value" : "The minimum number of options that can be exercised on a given exercise date."
      } ],
      "type" : "Decimal"
    }, {
      "multiplicity" : {
        "lowerBound" : 0,
        "upperBound" : 1
      },
      "name" : "maximumNotionalAmount",
      "taggedValues" : [ {
        "tag" : {
          "profile" : "meta::pure::profiles::doc",
          "value" : "doc"
        },
        "value" : "The maximum notional amount that can be exercised on a given exercise date."
      } ],
      "type" : "Decimal"
    }, {
      "multiplicity" : {
        "lowerBound" : 0,
        "upperBound" : 1
      },
      "name" : "maximumNumberOfOptions",
      "taggedValues" : [ {
        "tag" : {
          "profile" : "meta::pure::profiles::doc",
          "value" : "doc"
        },
        "value" : "The maximum number of options that can be exercised on a given exercise date. If the number is not specified, it means that the maximum number of options corresponds to the remaining unexercised options."
      } ],
      "type" : "Decimal"
    } ],
    "taggedValues" : [ {
      "tag" : {
        "profile" : "meta::pure::profiles::doc",
        "value" : "doc"
      },
      "value" : "A type defining multiple exercises. As defining in the 2000 ISDA Definitions, Section 12.4. Multiple Exercise, the buyer of the option has the right to exercise all or less than all the unexercised notional amount of the underlying swap on one or more days in the exercise period, but on any such day may not exercise less than the minimum notional amount or more than the maximum notional amount, and if an integral multiple amount is specified, the notional exercised must be equal to or, be an integral multiple of, the integral multiple amount."
    } ]
  }
}