{
  "classifierPath" : "meta::pure::metamodel::type::Class",
  "content" : {
    "_type" : "class",
    "name" : "ObservationOffset",
    "package" : "FpML::model",
    "properties" : [ {
      "multiplicity" : {
        "lowerBound" : 0,
        "upperBound" : 1
      },
      "name" : "offsetDays",
      "taggedValues" : [ {
        "tag" : {
          "profile" : "meta::pure::profiles::doc",
          "value" : "doc"
        },
        "value" : "The number of business days before the base date that the observations are to be shifted. If this element is omitted, the number of offset days will be as specified in the 2021 ISDA Definitions, which is typically 5."
      } ],
      "type" : "Decimal"
    } ],
    "taggedValues" : [ {
      "tag" : {
        "profile" : "meta::pure::profiles::doc",
        "value" : "doc"
      },
      "value" : "A type that allows an offset specified in business days to be applied for an observation shift, lookback, or lockout provision."
    } ]
  }
}