{
  "classifierPath" : "meta::pure::metamodel::type::Class",
  "content" : {
    "_type" : "class",
    "name" : "PartyContactInformation",
    "package" : "FpML::model",
    "properties" : [ {
      "multiplicity" : {
        "lowerBound" : 0,
        "upperBound" : 1
      },
      "name" : "partyReference",
      "taggedValues" : [ {
        "tag" : {
          "profile" : "meta::pure::profiles::doc",
          "value" : "doc"
        },
        "value" : "The party to which the terms apply."
      } ],
      "type" : "FpML::model::PartyReference"
    }, {
      "multiplicity" : {
        "lowerBound" : 0,
        "upperBound" : 1
      },
      "name" : "contactInfo",
      "type" : "FpML::model::ContactInformation"
    }, {
      "multiplicity" : {
        "lowerBound" : 0
      },
      "name" : "businessUnit",
      "taggedValues" : [ {
        "tag" : {
          "profile" : "meta::pure::profiles::doc",
          "value" : "doc"
        },
        "value" : "Optional organization unit information used to describe the organization units (e.g. trading desks) involved in a transaction or business process ."
      } ],
      "type" : "FpML::model::BusinessUnit"
    }, {
      "multiplicity" : {
        "lowerBound" : 0
      },
      "name" : "person",
      "taggedValues" : [ {
        "tag" : {
          "profile" : "meta::pure::profiles::doc",
          "value" : "doc"
        },
        "value" : "Optional information about people involved in a transaction or busines process. (These are eomployees of the party)."
      } ],
      "type" : "FpML::model::Person"
    } ]
  }
}