{
  "classifierPath" : "meta::pure::metamodel::type::Class",
  "content" : {
    "_type" : "class",
    "name" : "PassThroughItem",
    "package" : "FpML::model",
    "properties" : [ {
      "multiplicity" : {
        "lowerBound" : 0,
        "upperBound" : 1
      },
      "name" : "payerPartyReference",
      "taggedValues" : [ {
        "tag" : {
          "profile" : "meta::pure::profiles::doc",
          "value" : "doc"
        },
        "value" : "A reference to the party responsible for making the payments defined by this structure."
      } ],
      "type" : "FpML::model::PartyReference"
    }, {
      "multiplicity" : {
        "lowerBound" : 0,
        "upperBound" : 1
      },
      "name" : "payerAccountReference",
      "taggedValues" : [ {
        "tag" : {
          "profile" : "meta::pure::profiles::doc",
          "value" : "doc"
        },
        "value" : "A reference to the account responsible for making the payments defined by this structure."
      } ],
      "type" : "FpML::model::AccountReference"
    }, {
      "multiplicity" : {
        "lowerBound" : 0,
        "upperBound" : 1
      },
      "name" : "receiverPartyReference",
      "taggedValues" : [ {
        "tag" : {
          "profile" : "meta::pure::profiles::doc",
          "value" : "doc"
        },
        "value" : "A reference to the party that receives the payments corresponding to this structure."
      } ],
      "type" : "FpML::model::PartyReference"
    }, {
      "multiplicity" : {
        "lowerBound" : 0,
        "upperBound" : 1
      },
      "name" : "receiverAccountReference",
      "taggedValues" : [ {
        "tag" : {
          "profile" : "meta::pure::profiles::doc",
          "value" : "doc"
        },
        "value" : "A reference to the account that receives the payments corresponding to this structure."
      } ],
      "type" : "FpML::model::AccountReference"
    }, {
      "multiplicity" : {
        "lowerBound" : 0,
        "upperBound" : 1
      },
      "name" : "underlyerReference",
      "taggedValues" : [ {
        "tag" : {
          "profile" : "meta::pure::profiles::doc",
          "value" : "doc"
        },
        "value" : "Reference to the underlyer whose payments are being passed through."
      } ],
      "type" : "FpML::model::AssetReference"
    }, {
      "multiplicity" : {
        "lowerBound" : 0,
        "upperBound" : 1
      },
      "name" : "passThroughPercentage",
      "taggedValues" : [ {
        "tag" : {
          "profile" : "meta::pure::profiles::doc",
          "value" : "doc"
        },
        "value" : "Percentage of payments from the underlyer which are passed through. A value expressed in percentage units i.e. 5 means 5%."
      } ],
      "type" : "Decimal"
    } ],
    "taggedValues" : [ {
      "tag" : {
        "profile" : "meta::pure::profiles::doc",
        "value" : "doc"
      },
      "value" : "Type to represent a single pass through payment."
    } ]
  }
}