{
  "classifierPath" : "meta::pure::metamodel::type::Enumeration",
  "content" : {
    "_type" : "Enumeration",
    "name" : "PeriodExtendedEnum",
    "package" : "FpML::model",
    "taggedValues" : [ {
      "tag" : {
        "profile" : "meta::pure::profiles::doc",
        "value" : "doc"
      },
      "value" : "The specification of a time period containing additional values such as Term."
    } ],
    "values" : [ {
      "value" : "D"
    }, {
      "value" : "W"
    }, {
      "value" : "M"
    }, {
      "value" : "Y"
    }, {
      "value" : "T"
    } ]
  }
}