{
  "classifierPath" : "meta::pure::metamodel::type::Enumeration",
  "content" : {
    "_type" : "Enumeration",
    "name" : "RealisedVarianceMethodEnum",
    "package" : "FpML::model",
    "taggedValues" : [ {
      "tag" : {
        "profile" : "meta::pure::profiles::doc",
        "value" : "doc"
      },
      "value" : "The contract specifies whether which price must satisfy the boundary condition."
    } ],
    "values" : [ {
      "value" : "Previous"
    }, {
      "value" : "Last"
    }, {
      "value" : "Both"
    } ]
  }
}