{
  "classifierPath" : "meta::pure::metamodel::type::Class",
  "content" : {
    "_type" : "class",
    "name" : "Restructuring",
    "package" : "FpML::model",
    "properties" : [ {
      "multiplicity" : {
        "lowerBound" : 0,
        "upperBound" : 1
      },
      "name" : "applicable",
      "taggedValues" : [ {
        "tag" : {
          "profile" : "meta::pure::profiles::doc",
          "value" : "doc"
        },
        "value" : "Indicates whether the restructuring provision is applicable."
      } ],
      "type" : "Boolean"
    }, {
      "multiplicity" : {
        "lowerBound" : 0,
        "upperBound" : 1
      },
      "name" : "restructuringType",
      "taggedValues" : [ {
        "tag" : {
          "profile" : "meta::pure::profiles::doc",
          "value" : "doc"
        },
        "value" : "Specifies the type of restructuring that is applicable."
      } ],
      "type" : "FpML::model::RestructuringType"
    }, {
      "multiplicity" : {
        "lowerBound" : 0,
        "upperBound" : 1
      },
      "name" : "multipleHolderObligation",
      "taggedValues" : [ {
        "tag" : {
          "profile" : "meta::pure::profiles::doc",
          "value" : "doc"
        },
        "value" : "In relation to a restructuring credit event, unless multiple holder obligation is not specified restructurings are limited to multiple holder obligations. A multiple holder obligation means an obligation that is held by more than three holders that are not affiliates of each other and where at least two thirds of the holders must agree to the event that constitutes the restructuring credit event. ISDA 2003 Term: Multiple Holder Obligation."
      } ],
      "type" : "Boolean"
    }, {
      "multiplicity" : {
        "lowerBound" : 0,
        "upperBound" : 1
      },
      "name" : "multipleCreditEventNotices",
      "taggedValues" : [ {
        "tag" : {
          "profile" : "meta::pure::profiles::doc",
          "value" : "doc"
        },
        "value" : "Presence of this element and value set to 'true' indicates that Section 3.9 of the 2003 Credit Derivatives Definitions shall apply. Absence of this element indicates that Section 3.9 shall not apply. NOTE: Not allowed under ISDA Credit 1999."
      } ],
      "type" : "Boolean"
    } ]
  }
}