{
  "classifierPath" : "meta::pure::metamodel::type::Class",
  "content" : {
    "_type" : "class",
    "name" : "SpreadSchedule",
    "package" : "FpML::model",
    "properties" : [ {
      "multiplicity" : {
        "lowerBound" : 0,
        "upperBound" : 1
      },
      "name" : "type",
      "type" : "FpML::model::SpreadScheduleType"
    } ],
    "superTypes" : [ "FpML::model::Schedule" ],
    "taggedValues" : [ {
      "tag" : {
        "profile" : "meta::pure::profiles::doc",
        "value" : "doc"
      },
      "value" : "Adds an optional spread type element to the Schedule to identify a long or short spread value."
    } ]
  }
}