{
  "classifierPath" : "meta::pure::metamodel::type::Enumeration",
  "content" : {
    "_type" : "Enumeration",
    "name" : "StrikeQuoteBasisEnum",
    "package" : "FpML::model",
    "taggedValues" : [ {
      "tag" : {
        "profile" : "meta::pure::profiles::doc",
        "value" : "doc"
      },
      "value" : "The specification of how an FX OTC option strike price is quoted."
    } ],
    "values" : [ {
      "value" : "PutCurrencyPerCallCurrency"
    }, {
      "value" : "CallCurrencyPerPutCurrency"
    } ]
  }
}