{
  "classifierPath" : "meta::pure::metamodel::type::Class",
  "content" : {
    "_type" : "class",
    "constraints" : [ {
      "functionDefinition" : {
        "_type" : "lambda",
        "body" : [ {
          "_type" : "func",
          "function" : "or",
          "parameters" : [ {
            "_type" : "func",
            "function" : "and",
            "parameters" : [ {
              "_type" : "func",
              "function" : "isNotEmpty",
              "parameters" : [ {
                "_type" : "property",
                "parameters" : [ {
                  "_type" : "var",
                  "name" : "this"
                } ],
                "property" : "predeterminedClearingOrganizationPartyReference"
              } ]
            }, {
              "_type" : "func",
              "function" : "isEmpty",
              "parameters" : [ {
                "_type" : "property",
                "parameters" : [ {
                  "_type" : "var",
                  "name" : "this"
                } ],
                "property" : "mutuallyAgreedClearinghouse"
              } ]
            } ]
          }, {
            "_type" : "func",
            "function" : "and",
            "parameters" : [ {
              "_type" : "func",
              "function" : "isEmpty",
              "parameters" : [ {
                "_type" : "property",
                "parameters" : [ {
                  "_type" : "var",
                  "name" : "this"
                } ],
                "property" : "predeterminedClearingOrganizationPartyReference"
              } ]
            }, {
              "_type" : "func",
              "function" : "isNotEmpty",
              "parameters" : [ {
                "_type" : "property",
                "parameters" : [ {
                  "_type" : "var",
                  "name" : "this"
                } ],
                "property" : "mutuallyAgreedClearinghouse"
              } ]
            } ]
          } ]
        } ],
        "parameters" : [ ]
      },
      "name" : "c1_choice"
    } ],
    "name" : "SwaptionPhysicalSettlement",
    "package" : "FpML::model",
    "properties" : [ {
      "multiplicity" : {
        "lowerBound" : 0,
        "upperBound" : 1
      },
      "name" : "clearedPhysicalSettlement",
      "taggedValues" : [ {
        "tag" : {
          "profile" : "meta::pure::profiles::doc",
          "value" : "doc"
        },
        "value" : "Specifies whether the swap resulting from physical settlement of the swaption transaction will clear through a clearing house. The meaning of Cleared Physical Settlement is defined in the 2006 ISDA Definitions, Section 15.2 (published in Supplement number 28)."
      } ],
      "type" : "Boolean"
    }, {
      "multiplicity" : {
        "lowerBound" : 0,
        "upperBound" : 1
      },
      "name" : "predeterminedClearingOrganizationPartyReference",
      "taggedValues" : [ {
        "tag" : {
          "profile" : "meta::pure::profiles::doc",
          "value" : "doc"
        },
        "value" : "A reference to the clearing organization (CCP, DCO) to which the trade should be cleared. This is also known as the \"Mutually Agreed Clearinghouse\"."
      } ],
      "type" : "FpML::model::PartyReference"
    }, {
      "multiplicity" : {
        "lowerBound" : 0,
        "upperBound" : 1
      },
      "name" : "mutuallyAgreedClearinghouse",
      "taggedValues" : [ {
        "tag" : {
          "profile" : "meta::pure::profiles::doc",
          "value" : "doc"
        },
        "value" : "This may be used to specify a \"mutually-agreed clearinghouse\" for settlement."
      } ],
      "type" : "FpML::model::MutuallyAgreedClearinghouse"
    }, {
      "multiplicity" : {
        "lowerBound" : 0,
        "upperBound" : 1
      },
      "name" : "agreedDiscountRate",
      "taggedValues" : [ {
        "tag" : {
          "profile" : "meta::pure::profiles::doc",
          "value" : "doc"
        },
        "value" : "This may be used to indicate the discount rate to be used for cash collateral for cash settlement purposes."
      } ],
      "type" : "FpML::model::BenchmarkRate"
    }, {
      "multiplicity" : {
        "lowerBound" : 0,
        "upperBound" : 1
      },
      "name" : "settlementRateSource",
      "taggedValues" : [ {
        "tag" : {
          "profile" : "meta::pure::profiles::doc",
          "value" : "doc"
        },
        "value" : "The method for obtaining a settlement rate. This may be from some information source (e.g. Reuters) or from a set of reference banks."
      } ],
      "type" : "FpML::model::SettlementRateSource"
    }, {
      "multiplicity" : {
        "lowerBound" : 0,
        "upperBound" : 1
      },
      "name" : "quotationRateType",
      "taggedValues" : [ {
        "tag" : {
          "profile" : "meta::pure::profiles::doc",
          "value" : "doc"
        },
        "value" : "Which rate quote is to be observed, either Bid, Mid, Offer or Exercising Party Pays. The meaning of Exercising Party Pays is defined in the 2000 ISDA Definitions, Section 17.2. Certain Definitions Relating to Cash Settlement, paragraph (j)"
      } ],
      "type" : "FpML::model::QuotationRateTypeEnum"
    } ]
  }
}